{
  "questionId": "50",
  "questionFrontendId": "50",
  "boundTopicId": null,
  "title": "Pow(x, n)",
  "titleSlug": "powx-n",
  "content": "<p>Implement <a href=\"http://www.cplusplus.com/reference/valarray/pow/\" target=\"_blank\">pow(x, n)</a>, which calculates <code>x</code> raised to the power <code>n</code> (i.e., <code>x<sup>n</sup></code>).</p>\n\n<p>&nbsp;</p>\n<p><strong>Example 1:</strong></p>\n\n<pre>\n<strong>Input:</strong> x = 2.00000, n = 10\n<strong>Output:</strong> 1024.00000\n</pre>\n\n<p><strong>Example 2:</strong></p>\n\n<pre>\n<strong>Input:</strong> x = 2.10000, n = 3\n<strong>Output:</strong> 9.26100\n</pre>\n\n<p><strong>Example 3:</strong></p>\n\n<pre>\n<strong>Input:</strong> x = 2.00000, n = -2\n<strong>Output:</strong> 0.25000\n<strong>Explanation:</strong> 2<sup>-2</sup> = 1/2<sup>2</sup> = 1/4 = 0.25\n</pre>\n\n<p>&nbsp;</p>\n<p><strong>Constraints:</strong></p>\n\n<ul>\n\t<li><code>-100.0 &lt;&nbsp;x&nbsp;&lt; 100.0</code></li>\n\t<li><code>-2<sup>31</sup>&nbsp;&lt;= n &lt;=&nbsp;2<sup>31</sup>-1</code></li>\n\t<li><code>-10<sup>4</sup> &lt;= x<sup>n</sup> &lt;= 10<sup>4</sup></code></li>\n</ul>\n",
  "translatedTitle": null,
  "translatedContent": null,
  "isPaidOnly": false,
  "difficulty": "Medium",
  "likes": 2934,
  "dislikes": 4201,
  "isLiked": null,
  "similarQuestions": "[{\"title\": \"Sqrt(x)\", \"titleSlug\": \"sqrtx\", \"difficulty\": \"Easy\", \"translatedTitle\": null}, {\"title\": \"Super Pow\", \"titleSlug\": \"super-pow\", \"difficulty\": \"Medium\", \"translatedTitle\": null}]",
  "contributors": [],
  "topicTags": [
    {
      "name": "Math",
      "slug": "math",
      "translatedName": null,
      "__typename": "TopicTagNode"
    },
    {
      "name": "Recursion",
      "slug": "recursion",
      "translatedName": null,
      "__typename": "TopicTagNode"
    }
  ],
  "companyTagStats": null,
  "codeSnippets": [
    {
      "lang": "C++",
      "langSlug": "cpp",
      "code": "class Solution {\npublic:\n    double myPow(double x, int n) {\n        \n    }\n};",
      "__typename": "CodeSnippetNode"
    },
    {
      "lang": "Java",
      "langSlug": "java",
      "code": "class Solution {\n    public double myPow(double x, int n) {\n        \n    }\n}",
      "__typename": "CodeSnippetNode"
    },
    {
      "lang": "Python",
      "langSlug": "python",
      "code": "class Solution(object):\n    def myPow(self, x, n):\n        \"\"\"\n        :type x: float\n        :type n: int\n        :rtype: float\n        \"\"\"\n        ",
      "__typename": "CodeSnippetNode"
    },
    {
      "lang": "Python3",
      "langSlug": "python3",
      "code": "class Solution:\n    def myPow(self, x: float, n: int) -> float:\n        ",
      "__typename": "CodeSnippetNode"
    },
    {
      "lang": "C",
      "langSlug": "c",
      "code": "\n\ndouble myPow(double x, int n){\n\n}",
      "__typename": "CodeSnippetNode"
    },
    {
      "lang": "C#",
      "langSlug": "csharp",
      "code": "public class Solution {\n    public double MyPow(double x, int n) {\n        \n    }\n}",
      "__typename": "CodeSnippetNode"
    },
    {
      "lang": "JavaScript",
      "langSlug": "javascript",
      "code": "/**\n * @param {number} x\n * @param {number} n\n * @return {number}\n */\nvar myPow = function(x, n) {\n    \n};",
      "__typename": "CodeSnippetNode"
    },
    {
      "lang": "Ruby",
      "langSlug": "ruby",
      "code": "# @param {Float} x\n# @param {Integer} n\n# @return {Float}\ndef my_pow(x, n)\n    \nend",
      "__typename": "CodeSnippetNode"
    },
    {
      "lang": "Swift",
      "langSlug": "swift",
      "code": "class Solution {\n    func myPow(_ x: Double, _ n: Int) -> Double {\n        \n    }\n}",
      "__typename": "CodeSnippetNode"
    },
    {
      "lang": "Go",
      "langSlug": "golang",
      "code": "func myPow(x float64, n int) float64 {\n    \n}",
      "__typename": "CodeSnippetNode"
    },
    {
      "lang": "Scala",
      "langSlug": "scala",
      "code": "object Solution {\n    def myPow(x: Double, n: Int): Double = {\n        \n    }\n}",
      "__typename": "CodeSnippetNode"
    },
    {
      "lang": "Kotlin",
      "langSlug": "kotlin",
      "code": "class Solution {\n    fun myPow(x: Double, n: Int): Double {\n        \n    }\n}",
      "__typename": "CodeSnippetNode"
    },
    {
      "lang": "Rust",
      "langSlug": "rust",
      "code": "impl Solution {\n    pub fn my_pow(x: f64, n: i32) -> f64 {\n        \n    }\n}",
      "__typename": "CodeSnippetNode"
    },
    {
      "lang": "PHP",
      "langSlug": "php",
      "code": "class Solution {\n\n    /**\n     * @param Float $x\n     * @param Integer $n\n     * @return Float\n     */\n    function myPow($x, $n) {\n        \n    }\n}",
      "__typename": "CodeSnippetNode"
    },
    {
      "lang": "TypeScript",
      "langSlug": "typescript",
      "code": "function myPow(x: number, n: number): number {\n\n};",
      "__typename": "CodeSnippetNode"
    },
    {
      "lang": "Racket",
      "langSlug": "racket",
      "code": "(define/contract (my-pow x n)\n  (-> flonum? exact-integer? flonum?)\n\n  )",
      "__typename": "CodeSnippetNode"
    },
    {
      "lang": "Erlang",
      "langSlug": "erlang",
      "code": "-spec my_pow(X :: float(), N :: integer()) -> float().\nmy_pow(X, N) ->\n  .",
      "__typename": "CodeSnippetNode"
    },
    {
      "lang": "Elixir",
      "langSlug": "elixir",
      "code": "defmodule Solution do\n  @spec my_pow(x :: float, n :: integer) :: float\n  def my_pow(x, n) do\n\n  end\nend",
      "__typename": "CodeSnippetNode"
    }
  ],
  "stats": "{\"totalAccepted\": \"698.3K\", \"totalSubmission\": \"2.2M\", \"totalAcceptedRaw\": 698329, \"totalSubmissionRaw\": 2220430, \"acRate\": \"31.5%\"}",
  "hints": [],
  "solution": {
    "id": "360",
    "canSeeDetail": false,
    "paidOnly": true,
    "hasVideoSolution": false,
    "__typename": "ArticleNode"
  },
  "status": null,
  "sampleTestCase": "2.00000\n10",
  "metaData": "{\r\n  \"name\": \"myPow\",\r\n  \"params\": [\r\n    {\r\n      \"name\": \"x\",\r\n      \"type\": \"double\"\r\n    },\r\n    {\r\n      \"name\": \"n\",\r\n      \"type\": \"integer\"\r\n    }\r\n  ],\r\n  \"return\": {\r\n    \"type\": \"double\"\r\n  }\r\n}",
  "judgerAvailable": true,
  "judgeType": "large",
  "mysqlSchemas": [],
  "enableRunCode": true,
  "enableTestMode": false,
  "enableDebugger": true,
  "envInfo": "{\"cpp\": [\"C++\", \"<p>Compiled with <code> clang 11 </code> using the latest C++ 17 standard.</p>\\r\\n\\r\\n<p>Your code is compiled with level two optimization (<code>-O2</code>). <a href=\\\"https://github.com/google/sanitizers/wiki/AddressSanitizer\\\" target=\\\"_blank\\\">AddressSanitizer</a> is also enabled to help detect out-of-bounds and use-after-free bugs.</p>\\r\\n\\r\\n<p>Most standard library headers are already included automatically for your convenience.</p>\"], \"java\": [\"Java\", \"<p><code>Java SE 13</code>.</p>\\r\\n\\r\\n<p>Most standard library headers are already included automatically for your convenience.</p>\\r\\n<p>Includes <code>Pair</code> class from https://docs.oracle.com/javase/8/javafx/api/javafx/util/Pair.html.</p>\"], \"python\": [\"Python\", \"<p><code>Python 2.7.12</code>.</p>\\r\\n\\r\\n<p>Most libraries are already imported automatically for your convenience, such as <a href=\\\"https://docs.python.org/2/library/array.html\\\" target=\\\"_blank\\\">array</a>, <a href=\\\"https://docs.python.org/2/library/bisect.html\\\" target=\\\"_blank\\\">bisect</a>, <a href=\\\"https://docs.python.org/2/library/collections.html\\\" target=\\\"_blank\\\">collections</a>. If you need more libraries, you can import it yourself.</p>\\r\\n\\r\\n<p>For Map/TreeMap data structure, you may use <a href=\\\"http://www.grantjenks.com/docs/sortedcontainers/\\\" target=\\\"_blank\\\">sortedcontainers</a> library.</p>\\r\\n\\r\\n<p>Note that Python 2.7 <a href=\\\"https://www.python.org/dev/peps/pep-0373/\\\" target=\\\"_blank\\\">will not be maintained past 2020</a>. For the latest Python, please choose Python3 instead.</p>\"], \"c\": [\"C\", \"<p>Compiled with <code>gcc 8.2</code> using the gnu99 standard.</p>\\r\\n\\r\\n<p>Your code is compiled with level one optimization (<code>-O1</code>). <a href=\\\"https://github.com/google/sanitizers/wiki/AddressSanitizer\\\" target=\\\"_blank\\\">AddressSanitizer</a> is also enabled to help detect out-of-bounds and use-after-free bugs.</p>\\r\\n\\r\\n<p>Most standard library headers are already included automatically for your convenience.</p>\\r\\n\\r\\n<p>For hash table operations, you may use <a href=\\\"https://troydhanson.github.io/uthash/\\\" target=\\\"_blank\\\">uthash</a>. \\\"uthash.h\\\" is included by default. Below are some examples:</p>\\r\\n\\r\\n<p><b>1. Adding an item to a hash.</b>\\r\\n<pre>\\r\\nstruct hash_entry {\\r\\n    int id;            /* we'll use this field as the key */\\r\\n    char name[10];\\r\\n    UT_hash_handle hh; /* makes this structure hashable */\\r\\n};\\r\\n\\r\\nstruct hash_entry *users = NULL;\\r\\n\\r\\nvoid add_user(struct hash_entry *s) {\\r\\n    HASH_ADD_INT(users, id, s);\\r\\n}\\r\\n</pre>\\r\\n</p>\\r\\n\\r\\n<p><b>2. Looking up an item in a hash:</b>\\r\\n<pre>\\r\\nstruct hash_entry *find_user(int user_id) {\\r\\n    struct hash_entry *s;\\r\\n    HASH_FIND_INT(users, &user_id, s);\\r\\n    return s;\\r\\n}\\r\\n</pre>\\r\\n</p>\\r\\n\\r\\n<p><b>3. Deleting an item in a hash:</b>\\r\\n<pre>\\r\\nvoid delete_user(struct hash_entry *user) {\\r\\n    HASH_DEL(users, user);  \\r\\n}\\r\\n</pre>\\r\\n</p>\"], \"csharp\": [\"C#\", \"<p><a href=\\\"https://docs.microsoft.com/en-us/dotnet/csharp/whats-new/csharp-8\\\" target=\\\"_blank\\\">C# 8.0 </a></p>\\r\\n\\r\\n<p>Your code is compiled with debug flag enabled (<code>/debug</code>).</p>\"], \"javascript\": [\"JavaScript\", \"<p><code>Node.js 14.8.0</code>.</p>\\r\\n\\r\\n<p>Your code is run with <code>--harmony</code> flag, enabling <a href=\\\"http://node.green/\\\" target=\\\"_blank\\\">new ES6 features</a>.</p>\\r\\n\\r\\n<p><a href=\\\"https://lodash.com\\\" target=\\\"_blank\\\">lodash.js</a> library is included by default.</p>\\r\\n\\r\\n<p>For Priority Queue / Queue data structures, you may use <a href=\\\"https://github.com/datastructures-js/priority-queue\\\" target=\\\"_blank\\\">datastructures-js/priority-queue</a> and <a href=\\\"https://github.com/datastructures-js/queue\\\" target=\\\"_blank\\\">datastructures-js/queue</a>.</p>\"], \"ruby\": [\"Ruby\", \"<p><code>Ruby 2.7.1</code></p>\\r\\n\\r\\n<p>Some common data structure implementations are provided in the Algorithms module: https://www.rubydoc.info/github/kanwei/algorithms/Algorithms</p>\"], \"swift\": [\"Swift\", \"<p><code>Swift 5.4.2</code>.</p>\"], \"golang\": [\"Go\", \"<p><code>Go 1.16.2</code>.</p>\\r\\n\\r\\n<p>Support <a href=\\\"https://godoc.org/github.com/emirpasic/gods\\\" target=\\\"_blank\\\">https://godoc.org/github.com/emirpasic/gods</a> library.</p>\"], \"python3\": [\"Python3\", \"<p><code>Python 3.9</code>.</p>\\r\\n\\r\\n<p>Most libraries are already imported automatically for your convenience, such as <a href=\\\"https://docs.python.org/3/library/array.html\\\" target=\\\"_blank\\\">array</a>, <a href=\\\"https://docs.python.org/3/library/bisect.html\\\" target=\\\"_blank\\\">bisect</a>, <a href=\\\"https://docs.python.org/3/library/collections.html\\\" target=\\\"_blank\\\">collections</a>. If you need more libraries, you can import it yourself.</p>\\r\\n\\r\\n<p>For Map/TreeMap data structure, you may use <a href=\\\"http://www.grantjenks.com/docs/sortedcontainers/\\\" target=\\\"_blank\\\">sortedcontainers</a> library.</p>\"], \"scala\": [\"Scala\", \"<p><code>Scala 2.13</code>.</p>\"], \"kotlin\": [\"Kotlin\", \"<p><code>Kotlin 1.3.10</code>.</p>\"], \"rust\": [\"Rust\", \"<p><code>Rust 1.45.2</code></p>\\r\\n\\r\\n<p>Supports <a href=\\\"https://crates.io/crates/rand\\\" target=\\\"_blank\\\">rand </a> v0.6\\u00a0from crates.io</p>\"], \"php\": [\"PHP\", \"<p><code>PHP 7.2</code>.</p>\\r\\n<p>With bcmath module</p>\"], \"typescript\": [\"Typescript\", \"<p><code>Node.js 14.8.0</code>.</p>\\r\\n\\r\\n<p>Your code is run with <code>--harmony</code> flag, enabling <a href=\\\"http://node.green/\\\" target=\\\"_blank\\\">new ES2020 features</a>.</p>\\r\\n\\r\\n<p><a href=\\\"https://lodash.com\\\" target=\\\"_blank\\\">lodash.js</a> library is included by default.</p>\"], \"racket\": [\"Racket\", \"<p>Run with <code>Racket 8.0</code>.</p>\"], \"erlang\": [\"Erlang\", \"Erlang/OTP 24.0.2\"], \"elixir\": [\"Elixir\", \"Elixir 1.12.0 with Erlang/OTP 24.0.2\"]}",
  "libraryUrl": null,
  "adminUrl": null,
  "__typename": "QuestionNode"
}