{
  "questionId": "131",
  "questionFrontendId": "131",
  "boundTopicId": null,
  "title": "Palindrome Partitioning",
  "titleSlug": "palindrome-partitioning",
  "content": "<p>Given a string <code>s</code>, partition <code>s</code> such that every substring of the partition is a <strong>palindrome</strong>. Return all possible palindrome partitioning of <code>s</code>.</p>\n\n<p>A <strong>palindrome</strong> string is a string that reads the same backward as forward.</p>\n\n<p>&nbsp;</p>\n<p><strong>Example 1:</strong></p>\n<pre><strong>Input:</strong> s = \"aab\"\n<strong>Output:</strong> [[\"a\",\"a\",\"b\"],[\"aa\",\"b\"]]\n</pre><p><strong>Example 2:</strong></p>\n<pre><strong>Input:</strong> s = \"a\"\n<strong>Output:</strong> [[\"a\"]]\n</pre>\n<p>&nbsp;</p>\n<p><strong>Constraints:</strong></p>\n\n<ul>\n\t<li><code>1 &lt;= s.length &lt;= 16</code></li>\n\t<li><code>s</code> contains only lowercase English letters.</li>\n</ul>\n",
  "translatedTitle": null,
  "translatedContent": null,
  "isPaidOnly": false,
  "difficulty": "Medium",
  "likes": 2833,
  "dislikes": 91,
  "isLiked": null,
  "similarQuestions": "[{\"title\": \"Palindrome Partitioning II\", \"titleSlug\": \"palindrome-partitioning-ii\", \"difficulty\": \"Hard\", \"translatedTitle\": null}]",
  "contributors": [],
  "topicTags": [
    {
      "name": "Dynamic Programming",
      "slug": "dynamic-programming",
      "translatedName": null,
      "__typename": "TopicTagNode"
    },
    {
      "name": "Backtracking",
      "slug": "backtracking",
      "translatedName": null,
      "__typename": "TopicTagNode"
    },
    {
      "name": "Depth-first Search",
      "slug": "depth-first-search",
      "translatedName": null,
      "__typename": "TopicTagNode"
    }
  ],
  "companyTagStats": null,
  "codeSnippets": [
    {
      "lang": "C++",
      "langSlug": "cpp",
      "code": "class Solution {\npublic:\n    vector<vector<string>> partition(string s) {\n        \n    }\n};",
      "__typename": "CodeSnippetNode"
    },
    {
      "lang": "Java",
      "langSlug": "java",
      "code": "class Solution {\n    public List<List<String>> partition(String s) {\n        \n    }\n}",
      "__typename": "CodeSnippetNode"
    },
    {
      "lang": "Python",
      "langSlug": "python",
      "code": "class Solution(object):\n    def partition(self, s):\n        \"\"\"\n        :type s: str\n        :rtype: List[List[str]]\n        \"\"\"\n        ",
      "__typename": "CodeSnippetNode"
    },
    {
      "lang": "Python3",
      "langSlug": "python3",
      "code": "class Solution:\n    def partition(self, s: str) -> List[List[str]]:\n        ",
      "__typename": "CodeSnippetNode"
    },
    {
      "lang": "C",
      "langSlug": "c",
      "code": "\n\n/**\n * Return an array of arrays of size *returnSize.\n * The sizes of the arrays are returned as *returnColumnSizes array.\n * Note: Both returned array and *columnSizes array must be malloced, assume caller calls free().\n */\nchar *** partition(char * s, int* returnSize, int** returnColumnSizes){\n\n}",
      "__typename": "CodeSnippetNode"
    },
    {
      "lang": "C#",
      "langSlug": "csharp",
      "code": "public class Solution {\n    public IList<IList<string>> Partition(string s) {\n        \n    }\n}",
      "__typename": "CodeSnippetNode"
    },
    {
      "lang": "JavaScript",
      "langSlug": "javascript",
      "code": "/**\n * @param {string} s\n * @return {string[][]}\n */\nvar partition = function(s) {\n    \n};",
      "__typename": "CodeSnippetNode"
    },
    {
      "lang": "Ruby",
      "langSlug": "ruby",
      "code": "# @param {String} s\n# @return {String[][]}\ndef partition(s)\n    \nend",
      "__typename": "CodeSnippetNode"
    },
    {
      "lang": "Swift",
      "langSlug": "swift",
      "code": "class Solution {\n    func partition(_ s: String) -> [[String]] {\n        \n    }\n}",
      "__typename": "CodeSnippetNode"
    },
    {
      "lang": "Go",
      "langSlug": "golang",
      "code": "func partition(s string) [][]string {\n    \n}",
      "__typename": "CodeSnippetNode"
    },
    {
      "lang": "Scala",
      "langSlug": "scala",
      "code": "object Solution {\n    def partition(s: String): List[List[String]] = {\n        \n    }\n}",
      "__typename": "CodeSnippetNode"
    },
    {
      "lang": "Kotlin",
      "langSlug": "kotlin",
      "code": "class Solution {\n    fun partition(s: String): List<List<String>> {\n        \n    }\n}",
      "__typename": "CodeSnippetNode"
    },
    {
      "lang": "Rust",
      "langSlug": "rust",
      "code": "impl Solution {\n    pub fn partition(s: String) -> Vec<Vec<String>> {\n        \n    }\n}",
      "__typename": "CodeSnippetNode"
    },
    {
      "lang": "PHP",
      "langSlug": "php",
      "code": "class Solution {\n\n    /**\n     * @param String $s\n     * @return String[][]\n     */\n    function partition($s) {\n        \n    }\n}",
      "__typename": "CodeSnippetNode"
    },
    {
      "lang": "TypeScript",
      "langSlug": "typescript",
      "code": "function partition(s: string): string[][] {\n\n};",
      "__typename": "CodeSnippetNode"
    }
  ],
  "stats": "{\"totalAccepted\": \"284.9K\", \"totalSubmission\": \"555.5K\", \"totalAcceptedRaw\": 284860, \"totalSubmissionRaw\": 555514, \"acRate\": \"51.3%\"}",
  "hints": [],
  "solution": {
    "id": "1012",
    "canSeeDetail": true,
    "paidOnly": false,
    "hasVideoSolution": false,
    "__typename": "ArticleNode"
  },
  "status": null,
  "sampleTestCase": "\"aab\"",
  "metaData": "{\r\n  \"name\": \"partition\",\r\n  \"params\": [\r\n    {\r\n      \"name\": \"s\",\r\n      \"type\": \"string\"\r\n    }\r\n  ],\r\n  \"return\": {\r\n    \"type\": \"list<list<string>>\",\r\n    \"dealloc\": true\r\n  }\r\n}",
  "judgerAvailable": true,
  "judgeType": "large",
  "mysqlSchemas": [],
  "enableRunCode": true,
  "enableTestMode": false,
  "enableDebugger": true,
  "envInfo": "{\"cpp\": [\"C++\", \"<p>Compiled with <code> clang 11 </code> using the latest C++ 17 standard.</p>\\r\\n\\r\\n<p>Your code is compiled with level one optimization (<code>-O1</code>). <a href=\\\"https://github.com/google/sanitizers/wiki/AddressSanitizer\\\" target=\\\"_blank\\\">AddressSanitizer</a> is also enabled to help detect out-of-bounds and use-after-free bugs.</p>\\r\\n\\r\\n<p>Most standard library headers are already included automatically for your convenience.</p>\"], \"java\": [\"Java\", \"<p><code>Java SE 13</code>.</p>\\r\\n\\r\\n<p>Most standard library headers are already included automatically for your convenience.</p>\\r\\n<p>Includes <code>Pair</code> class from https://docs.oracle.com/javase/8/javafx/api/javafx/util/Pair.html.</p>\"], \"python\": [\"Python\", \"<p><code>Python 2.7.12</code>.</p>\\r\\n\\r\\n<p>Most libraries are already imported automatically for your convenience, such as <a href=\\\"https://docs.python.org/2/library/array.html\\\" target=\\\"_blank\\\">array</a>, <a href=\\\"https://docs.python.org/2/library/bisect.html\\\" target=\\\"_blank\\\">bisect</a>, <a href=\\\"https://docs.python.org/2/library/collections.html\\\" target=\\\"_blank\\\">collections</a>. If you need more libraries, you can import it yourself.</p>\\r\\n\\r\\n<p>For Map/TreeMap data structure, you may use <a href=\\\"http://www.grantjenks.com/docs/sortedcontainers/\\\" target=\\\"_blank\\\">sortedcontainers</a> library.</p>\\r\\n\\r\\n<p>Note that Python 2.7 <a href=\\\"https://www.python.org/dev/peps/pep-0373/\\\" target=\\\"_blank\\\">will not be maintained past 2020</a>. For the latest Python, please choose Python3 instead.</p>\"], \"c\": [\"C\", \"<p>Compiled with <code>gcc 8.2</code> using the gnu99 standard.</p>\\r\\n\\r\\n<p>Your code is compiled with level one optimization (<code>-O1</code>). <a href=\\\"https://github.com/google/sanitizers/wiki/AddressSanitizer\\\" target=\\\"_blank\\\">AddressSanitizer</a> is also enabled to help detect out-of-bounds and use-after-free bugs.</p>\\r\\n\\r\\n<p>Most standard library headers are already included automatically for your convenience.</p>\\r\\n\\r\\n<p>For hash table operations, you may use <a href=\\\"https://troydhanson.github.io/uthash/\\\" target=\\\"_blank\\\">uthash</a>. \\\"uthash.h\\\" is included by default. Below are some examples:</p>\\r\\n\\r\\n<p><b>1. Adding an item to a hash.</b>\\r\\n<pre>\\r\\nstruct hash_entry {\\r\\n    int id;            /* we'll use this field as the key */\\r\\n    char name[10];\\r\\n    UT_hash_handle hh; /* makes this structure hashable */\\r\\n};\\r\\n\\r\\nstruct hash_entry *users = NULL;\\r\\n\\r\\nvoid add_user(struct hash_entry *s) {\\r\\n    HASH_ADD_INT(users, id, s);\\r\\n}\\r\\n</pre>\\r\\n</p>\\r\\n\\r\\n<p><b>2. Looking up an item in a hash:</b>\\r\\n<pre>\\r\\nstruct hash_entry *find_user(int user_id) {\\r\\n    struct hash_entry *s;\\r\\n    HASH_FIND_INT(users, &user_id, s);\\r\\n    return s;\\r\\n}\\r\\n</pre>\\r\\n</p>\\r\\n\\r\\n<p><b>3. Deleting an item in a hash:</b>\\r\\n<pre>\\r\\nvoid delete_user(struct hash_entry *user) {\\r\\n    HASH_DEL(users, user);  \\r\\n}\\r\\n</pre>\\r\\n</p>\"], \"csharp\": [\"C#\", \"<p><a href=\\\"https://docs.microsoft.com/en-us/dotnet/csharp/whats-new/csharp-8\\\" target=\\\"_blank\\\">C# 8.0 </a></p>\\r\\n\\r\\n<p>Your code is compiled with debug flag enabled (<code>/debug</code>).</p>\"], \"javascript\": [\"JavaScript\", \"<p><code>Node.js 14.3.0</code>.</p>\\r\\n\\r\\n<p>Your code is run with <code>--harmony</code> flag, enabling <a href=\\\"http://node.green/\\\" target=\\\"_blank\\\">new ES6 features</a>.</p>\\r\\n\\r\\n<p><a href=\\\"https://lodash.com\\\" target=\\\"_blank\\\">lodash.js</a> library is included by default.</p>\\r\\n\\r\\n<p>For Priority Queue / Queue data structures, you may use <a href=\\\"https://github.com/datastructures-js/priority-queue\\\" target=\\\"_blank\\\">datastructures-js/priority-queue</a> and <a href=\\\"https://github.com/datastructures-js/queue\\\" target=\\\"_blank\\\">datastructures-js/queue</a>.</p>\"], \"ruby\": [\"Ruby\", \"<p><code>Ruby 2.7.1</code></p>\\r\\n\\r\\n<p>Some common data structure implementations are provided in the Algorithms module: https://www.rubydoc.info/github/kanwei/algorithms/Algorithms</p>\"], \"swift\": [\"Swift\", \"<p><code>Swift 5.2.5</code>.</p>\"], \"golang\": [\"Go\", \"<p><code>Go 1.13</code>.</p>\"], \"python3\": [\"Python3\", \"<p><code>Python 3.9</code>.</p>\\r\\n\\r\\n<p>Most libraries are already imported automatically for your convenience, such as <a href=\\\"https://docs.python.org/3/library/array.html\\\" target=\\\"_blank\\\">array</a>, <a href=\\\"https://docs.python.org/3/library/bisect.html\\\" target=\\\"_blank\\\">bisect</a>, <a href=\\\"https://docs.python.org/3/library/collections.html\\\" target=\\\"_blank\\\">collections</a>. If you need more libraries, you can import it yourself.</p>\\r\\n\\r\\n<p>For Map/TreeMap data structure, you may use <a href=\\\"http://www.grantjenks.com/docs/sortedcontainers/\\\" target=\\\"_blank\\\">sortedcontainers</a> library.</p>\"], \"scala\": [\"Scala\", \"<p><code>Scala 2.13</code>.</p>\"], \"kotlin\": [\"Kotlin\", \"<p><code>Kotlin 1.3.10</code>.</p>\"], \"rust\": [\"Rust\", \"<p><code>Rust 1.40.0</code></p>\\r\\n\\r\\n<p>Supports <a href=\\\"https://crates.io/crates/rand\\\" target=\\\"_blank\\\">rand</a>\\u00a0from crates.io</p>\"], \"php\": [\"PHP\", \"<p><code>PHP 7.2</code>.</p>\\r\\n<p>With bcmath module</p>\"], \"typescript\": [\"Typescript\", \"<p><code>Node.js 14.3.0</code>.</p>\\r\\n\\r\\n<p>Your code is run with <code>--harmony</code> flag, enabling <a href=\\\"http://node.green/\\\" target=\\\"_blank\\\">new ES6 features</a>.</p>\\r\\n\\r\\n<p><a href=\\\"https://lodash.com\\\" target=\\\"_blank\\\">lodash.js</a> library is included by default.</p>\"]}",
  "libraryUrl": null,
  "adminUrl": null,
  "__typename": "QuestionNode"
}