{
  "questionId": "1036",
  "questionFrontendId": "994",
  "boundTopicId": null,
  "title": "Rotting Oranges",
  "titleSlug": "rotting-oranges",
  "content": "<p>You are given an <code>m x n</code> <code>grid</code> where each cell can have one of three values:</p>\n\n<ul>\n\t<li><code>0</code> representing an empty cell,</li>\n\t<li><code>1</code> representing a fresh orange, or</li>\n\t<li><code>2</code> representing a rotten orange.</li>\n</ul>\n\n<p>Every minute, any fresh orange that is <strong>4-directionally adjacent</strong> to a rotten orange becomes rotten.</p>\n\n<p>Return <em>the minimum number of minutes that must elapse until no cell has a fresh orange</em>. If <em>this is impossible, return</em> <code>-1</code>.</p>\n\n<p>&nbsp;</p>\n<p><strong>Example 1:</strong></p>\n<img alt=\"\" src=\"https://assets.leetcode.com/uploads/2019/02/16/oranges.png\" style=\"width: 650px; height: 137px;\" />\n<pre>\n<strong>Input:</strong> grid = [[2,1,1],[1,1,0],[0,1,1]]\n<strong>Output:</strong> 4\n</pre>\n\n<p><strong>Example 2:</strong></p>\n\n<pre>\n<strong>Input:</strong> grid = [[2,1,1],[0,1,1],[1,0,1]]\n<strong>Output:</strong> -1\n<strong>Explanation:</strong> The orange in the bottom left corner (row 2, column 0) is never rotten, because rotting only happens 4-directionally.\n</pre>\n\n<p><strong>Example 3:</strong></p>\n\n<pre>\n<strong>Input:</strong> grid = [[0,2]]\n<strong>Output:</strong> 0\n<strong>Explanation:</strong> Since there are already no fresh oranges at minute 0, the answer is just 0.\n</pre>\n\n<p>&nbsp;</p>\n<p><strong>Constraints:</strong></p>\n\n<ul>\n\t<li><code>m == grid.length</code></li>\n\t<li><code>n == grid[i].length</code></li>\n\t<li><code>1 &lt;= m, n &lt;= 10</code></li>\n\t<li><code>grid[i][j]</code> is <code>0</code>, <code>1</code>, or <code>2</code>.</li>\n</ul>\n",
  "translatedTitle": null,
  "translatedContent": null,
  "isPaidOnly": false,
  "difficulty": "Medium",
  "likes": 5479,
  "dislikes": 255,
  "isLiked": null,
  "similarQuestions": "[{\"title\": \"Walls and Gates\", \"titleSlug\": \"walls-and-gates\", \"difficulty\": \"Medium\", \"translatedTitle\": null}, {\"title\": \"Detonate the Maximum Bombs\", \"titleSlug\": \"detonate-the-maximum-bombs\", \"difficulty\": \"Medium\", \"translatedTitle\": null}]",
  "contributors": [],
  "topicTags": [
    {
      "name": "Array",
      "slug": "array",
      "translatedName": null,
      "__typename": "TopicTagNode"
    },
    {
      "name": "Breadth-First Search",
      "slug": "breadth-first-search",
      "translatedName": null,
      "__typename": "TopicTagNode"
    },
    {
      "name": "Matrix",
      "slug": "matrix",
      "translatedName": null,
      "__typename": "TopicTagNode"
    }
  ],
  "companyTagStats": null,
  "codeSnippets": [
    {
      "lang": "C++",
      "langSlug": "cpp",
      "code": "class Solution {\npublic:\n    int orangesRotting(vector<vector<int>>& grid) {\n        \n    }\n};",
      "__typename": "CodeSnippetNode"
    },
    {
      "lang": "Java",
      "langSlug": "java",
      "code": "class Solution {\n    public int orangesRotting(int[][] grid) {\n        \n    }\n}",
      "__typename": "CodeSnippetNode"
    },
    {
      "lang": "Python",
      "langSlug": "python",
      "code": "class Solution(object):\n    def orangesRotting(self, grid):\n        \"\"\"\n        :type grid: List[List[int]]\n        :rtype: int\n        \"\"\"\n        ",
      "__typename": "CodeSnippetNode"
    },
    {
      "lang": "Python3",
      "langSlug": "python3",
      "code": "class Solution:\n    def orangesRotting(self, grid: List[List[int]]) -> int:\n        ",
      "__typename": "CodeSnippetNode"
    },
    {
      "lang": "C",
      "langSlug": "c",
      "code": "\n\nint orangesRotting(int** grid, int gridSize, int* gridColSize){\n\n}",
      "__typename": "CodeSnippetNode"
    },
    {
      "lang": "C#",
      "langSlug": "csharp",
      "code": "public class Solution {\n    public int OrangesRotting(int[][] grid) {\n        \n    }\n}",
      "__typename": "CodeSnippetNode"
    },
    {
      "lang": "JavaScript",
      "langSlug": "javascript",
      "code": "/**\n * @param {number[][]} grid\n * @return {number}\n */\nvar orangesRotting = function(grid) {\n    \n};",
      "__typename": "CodeSnippetNode"
    },
    {
      "lang": "Ruby",
      "langSlug": "ruby",
      "code": "# @param {Integer[][]} grid\n# @return {Integer}\ndef oranges_rotting(grid)\n    \nend",
      "__typename": "CodeSnippetNode"
    },
    {
      "lang": "Swift",
      "langSlug": "swift",
      "code": "class Solution {\n    func orangesRotting(_ grid: [[Int]]) -> Int {\n        \n    }\n}",
      "__typename": "CodeSnippetNode"
    },
    {
      "lang": "Go",
      "langSlug": "golang",
      "code": "func orangesRotting(grid [][]int) int {\n    \n}",
      "__typename": "CodeSnippetNode"
    },
    {
      "lang": "Scala",
      "langSlug": "scala",
      "code": "object Solution {\n    def orangesRotting(grid: Array[Array[Int]]): Int = {\n        \n    }\n}",
      "__typename": "CodeSnippetNode"
    },
    {
      "lang": "Kotlin",
      "langSlug": "kotlin",
      "code": "class Solution {\n    fun orangesRotting(grid: Array<IntArray>): Int {\n        \n    }\n}",
      "__typename": "CodeSnippetNode"
    },
    {
      "lang": "Rust",
      "langSlug": "rust",
      "code": "impl Solution {\n    pub fn oranges_rotting(grid: Vec<Vec<i32>>) -> i32 {\n        \n    }\n}",
      "__typename": "CodeSnippetNode"
    },
    {
      "lang": "PHP",
      "langSlug": "php",
      "code": "class Solution {\n\n    /**\n     * @param Integer[][] $grid\n     * @return Integer\n     */\n    function orangesRotting($grid) {\n        \n    }\n}",
      "__typename": "CodeSnippetNode"
    },
    {
      "lang": "TypeScript",
      "langSlug": "typescript",
      "code": "function orangesRotting(grid: number[][]): number {\n\n};",
      "__typename": "CodeSnippetNode"
    },
    {
      "lang": "Racket",
      "langSlug": "racket",
      "code": "(define/contract (oranges-rotting grid)\n  (-> (listof (listof exact-integer?)) exact-integer?)\n\n  )",
      "__typename": "CodeSnippetNode"
    },
    {
      "lang": "Erlang",
      "langSlug": "erlang",
      "code": "-spec oranges_rotting(Grid :: [[integer()]]) -> integer().\noranges_rotting(Grid) ->\n  .",
      "__typename": "CodeSnippetNode"
    },
    {
      "lang": "Elixir",
      "langSlug": "elixir",
      "code": "defmodule Solution do\n  @spec oranges_rotting(grid :: [[integer]]) :: integer\n  def oranges_rotting(grid) do\n\n  end\nend",
      "__typename": "CodeSnippetNode"
    }
  ],
  "stats": "{\"totalAccepted\": \"318.1K\", \"totalSubmission\": \"620.3K\", \"totalAcceptedRaw\": 318117, \"totalSubmissionRaw\": 620338, \"acRate\": \"51.3%\"}",
  "hints": [],
  "solution": {
    "id": "935",
    "canSeeDetail": false,
    "paidOnly": true,
    "hasVideoSolution": false,
    "__typename": "ArticleNode"
  },
  "status": null,
  "sampleTestCase": "[[2,1,1],[1,1,0],[0,1,1]]",
  "metaData": "{\r\n  \"name\": \"orangesRotting\",\r\n  \"params\": [\r\n    {\r\n      \"name\": \"grid\",\r\n      \"type\": \"integer[][]\"\r\n    }\r\n  ],\r\n  \"return\": {\r\n    \"type\": \"integer\"\r\n  }\r\n}\r\n",
  "judgerAvailable": true,
  "judgeType": "large",
  "mysqlSchemas": [],
  "enableRunCode": true,
  "enableTestMode": false,
  "enableDebugger": true,
  "envInfo": "{\"cpp\": [\"C++\", \"<p>Compiled with <code> clang 11 </code> using the latest C++ 17 standard.</p>\\r\\n\\r\\n<p>Your code is compiled with level two optimization (<code>-O2</code>). <a href=\\\"https://github.com/google/sanitizers/wiki/AddressSanitizer\\\" target=\\\"_blank\\\">AddressSanitizer</a> is also enabled to help detect out-of-bounds and use-after-free bugs.</p>\\r\\n\\r\\n<p>Most standard library headers are already included automatically for your convenience.</p>\"], \"java\": [\"Java\", \"<p><code>Java SE 13</code>.</p>\\r\\n\\r\\n<p>Most standard library headers are already included automatically for your convenience.</p>\\r\\n<p>Includes <code>Pair</code> class from https://docs.oracle.com/javase/8/javafx/api/javafx/util/Pair.html.</p>\"], \"python\": [\"Python\", \"<p><code>Python 2.7.12</code>.</p>\\r\\n\\r\\n<p>Most libraries are already imported automatically for your convenience, such as <a href=\\\"https://docs.python.org/2/library/array.html\\\" target=\\\"_blank\\\">array</a>, <a href=\\\"https://docs.python.org/2/library/bisect.html\\\" target=\\\"_blank\\\">bisect</a>, <a href=\\\"https://docs.python.org/2/library/collections.html\\\" target=\\\"_blank\\\">collections</a>. If you need more libraries, you can import it yourself.</p>\\r\\n\\r\\n<p>For Map/TreeMap data structure, you may use <a href=\\\"http://www.grantjenks.com/docs/sortedcontainers/\\\" target=\\\"_blank\\\">sortedcontainers</a> library.</p>\\r\\n\\r\\n<p>Note that Python 2.7 <a href=\\\"https://www.python.org/dev/peps/pep-0373/\\\" target=\\\"_blank\\\">will not be maintained past 2020</a>. For the latest Python, please choose Python3 instead.</p>\"], \"c\": [\"C\", \"<p>Compiled with <code>gcc 8.2</code> using the gnu99 standard.</p>\\r\\n\\r\\n<p>Your code is compiled with level one optimization (<code>-O1</code>). <a href=\\\"https://github.com/google/sanitizers/wiki/AddressSanitizer\\\" target=\\\"_blank\\\">AddressSanitizer</a> is also enabled to help detect out-of-bounds and use-after-free bugs.</p>\\r\\n\\r\\n<p>Most standard library headers are already included automatically for your convenience.</p>\\r\\n\\r\\n<p>For hash table operations, you may use <a href=\\\"https://troydhanson.github.io/uthash/\\\" target=\\\"_blank\\\">uthash</a>. \\\"uthash.h\\\" is included by default. Below are some examples:</p>\\r\\n\\r\\n<p><b>1. Adding an item to a hash.</b>\\r\\n<pre>\\r\\nstruct hash_entry {\\r\\n    int id;            /* we'll use this field as the key */\\r\\n    char name[10];\\r\\n    UT_hash_handle hh; /* makes this structure hashable */\\r\\n};\\r\\n\\r\\nstruct hash_entry *users = NULL;\\r\\n\\r\\nvoid add_user(struct hash_entry *s) {\\r\\n    HASH_ADD_INT(users, id, s);\\r\\n}\\r\\n</pre>\\r\\n</p>\\r\\n\\r\\n<p><b>2. Looking up an item in a hash:</b>\\r\\n<pre>\\r\\nstruct hash_entry *find_user(int user_id) {\\r\\n    struct hash_entry *s;\\r\\n    HASH_FIND_INT(users, &user_id, s);\\r\\n    return s;\\r\\n}\\r\\n</pre>\\r\\n</p>\\r\\n\\r\\n<p><b>3. Deleting an item in a hash:</b>\\r\\n<pre>\\r\\nvoid delete_user(struct hash_entry *user) {\\r\\n    HASH_DEL(users, user);  \\r\\n}\\r\\n</pre>\\r\\n</p>\"], \"csharp\": [\"C#\", \"<p><a href=\\\"https://docs.microsoft.com/en-us/dotnet/csharp/whats-new/csharp-9\\\" target=\\\"_blank\\\">C# 9.0 with .NET 5 runtime</a></p>\\r\\n\\r\\n<p>Your code is compiled with debug flag enabled (<code>/debug</code>).</p>\"], \"javascript\": [\"JavaScript\", \"<p><code>Node.js 14.8.0</code>.</p>\\r\\n\\r\\n<p>Your code is run with <code>--harmony</code> flag, enabling <a href=\\\"http://node.green/\\\" target=\\\"_blank\\\">new ES6 features</a>.</p>\\r\\n\\r\\n<p><a href=\\\"https://lodash.com\\\" target=\\\"_blank\\\">lodash.js</a> library is included by default.</p>\\r\\n\\r\\n<p>For Priority Queue / Queue data structures, you may use <a href=\\\"https://github.com/datastructures-js/priority-queue\\\" target=\\\"_blank\\\">datastructures-js/priority-queue</a> and <a href=\\\"https://github.com/datastructures-js/queue\\\" target=\\\"_blank\\\">datastructures-js/queue</a>.</p>\"], \"ruby\": [\"Ruby\", \"<p><code>Ruby 2.7.1</code></p>\\r\\n\\r\\n<p>Some common data structure implementations are provided in the Algorithms module: https://www.rubydoc.info/github/kanwei/algorithms/Algorithms</p>\"], \"swift\": [\"Swift\", \"<p><code>Swift 5.4.2</code>.</p>\"], \"golang\": [\"Go\", \"<p><code>Go 1.16.2</code>.</p>\\r\\n\\r\\n<p>Support <a href=\\\"https://godoc.org/github.com/emirpasic/gods\\\" target=\\\"_blank\\\">https://godoc.org/github.com/emirpasic/gods</a> library.</p>\"], \"python3\": [\"Python3\", \"<p><code>Python 3.9</code>.</p>\\r\\n\\r\\n<p>Most libraries are already imported automatically for your convenience, such as <a href=\\\"https://docs.python.org/3/library/array.html\\\" target=\\\"_blank\\\">array</a>, <a href=\\\"https://docs.python.org/3/library/bisect.html\\\" target=\\\"_blank\\\">bisect</a>, <a href=\\\"https://docs.python.org/3/library/collections.html\\\" target=\\\"_blank\\\">collections</a>. If you need more libraries, you can import it yourself.</p>\\r\\n\\r\\n<p>For Map/TreeMap data structure, you may use <a href=\\\"http://www.grantjenks.com/docs/sortedcontainers/\\\" target=\\\"_blank\\\">sortedcontainers</a> library.</p>\"], \"scala\": [\"Scala\", \"<p><code>Scala 2.13</code>.</p>\"], \"kotlin\": [\"Kotlin\", \"<p><code>Kotlin 1.3.10</code>.</p>\"], \"rust\": [\"Rust\", \"<p><code>Rust 1.45.2</code></p>\\r\\n\\r\\n<p>Supports <a href=\\\"https://crates.io/crates/rand\\\" target=\\\"_blank\\\">rand </a> v0.6\\u00a0from crates.io</p>\"], \"php\": [\"PHP\", \"<p><code>PHP 7.2</code>.</p>\\r\\n<p>With bcmath module</p>\"], \"typescript\": [\"Typescript\", \"<p><code>Node.js 14.8.0</code>.</p>\\r\\n\\r\\n<p>Your code is run with <code>--harmony</code> flag, enabling <a href=\\\"http://node.green/\\\" target=\\\"_blank\\\">new ES2020 features</a>.</p>\\r\\n\\r\\n<p><a href=\\\"https://lodash.com\\\" target=\\\"_blank\\\">lodash.js</a> library is included by default.</p>\"], \"racket\": [\"Racket\", \"<p>Run with <code>Racket 8.0</code>.</p>\"], \"erlang\": [\"Erlang\", \"Erlang/OTP 24.0.2\"], \"elixir\": [\"Elixir\", \"Elixir 1.12.0 with Erlang/OTP 24.0.2\"]}",
  "libraryUrl": null,
  "adminUrl": null,
  "__typename": "QuestionNode"
}