{
  "questionId": "1815",
  "questionFrontendId": "1697",
  "boundTopicId": null,
  "title": "Checking Existence of Edge Length Limited Paths",
  "titleSlug": "checking-existence-of-edge-length-limited-paths",
  "content": "<p>An undirected graph of <code>n</code> nodes is defined by <code>edgeList</code>, where <code>edgeList[i] = [u<sub>i</sub>, v<sub>i</sub>, dis<sub>i</sub>]</code> denotes an edge between nodes <code>u<sub>i</sub></code> and <code>v<sub>i</sub></code> with distance <code>dis<sub>i</sub></code>. Note that there may be <strong>multiple</strong> edges between two nodes.</p>\n\n<p>Given an array <code>queries</code>, where <code>queries[j] = [p<sub>j</sub>, q<sub>j</sub>, limit<sub>j</sub>]</code>, your task is to determine for each <code>queries[j]</code> whether there is a path between <code>p<sub>j</sub></code> and <code>q<sub>j</sub></code><sub> </sub>such that each edge on the path has a distance <strong>strictly less than</strong> <code>limit<sub>j</sub></code> .</p>\n\n<p>Return <em>a <strong>boolean array</strong> </em><code>answer</code><em>, where </em><code>answer.length == queries.length</code> <em>and the </em><code>j<sup>th</sup></code> <em>value of </em><code>answer</code> <em>is </em><code>true</code><em> if there is a path for </em><code>queries[j]</code><em> is </em><code>true</code><em>, and </em><code>false</code><em> otherwise</em>.</p>\n\n<p>&nbsp;</p>\n<p><strong>Example 1:</strong></p>\n<img alt=\"\" src=\"https://assets.leetcode.com/uploads/2020/12/08/h.png\" style=\"width: 267px; height: 262px;\" />\n<pre>\n<strong>Input:</strong> n = 3, edgeList = [[0,1,2],[1,2,4],[2,0,8],[1,0,16]], queries = [[0,1,2],[0,2,5]]\n<strong>Output:</strong> [false,true]\n<strong>Explanation:</strong> The above figure shows the given graph. Note that there are two overlapping edges between 0 and 1 with distances 2 and 16.\nFor the first query, between 0 and 1 there is no path where each distance is less than 2, thus we return false for this query.\nFor the second query, there is a path (0 -&gt; 1 -&gt; 2) of two edges with distances less than 5, thus we return true for this query.\n</pre>\n\n<p><strong>Example 2:</strong></p>\n<img alt=\"\" src=\"https://assets.leetcode.com/uploads/2020/12/08/q.png\" style=\"width: 390px; height: 358px;\" />\n<pre>\n<strong>Input:</strong> n = 5, edgeList = [[0,1,10],[1,2,5],[2,3,9],[3,4,13]], queries = [[0,4,14],[1,4,13]]\n<strong>Output:</strong> [true,false]\n<strong>Exaplanation:</strong> The above figure shows the given graph.\n</pre>\n\n<p>&nbsp;</p>\n<p><strong>Constraints:</strong></p>\n\n<ul>\n\t<li><code>2 &lt;= n &lt;= 10<sup>5</sup></code></li>\n\t<li><code>1 &lt;= edgeList.length, queries.length &lt;= 10<sup>5</sup></code></li>\n\t<li><code>edgeList[i].length == 3</code></li>\n\t<li><code>queries[j].length == 3</code></li>\n\t<li><code>0 &lt;= u<sub>i</sub>, v<sub>i</sub>, p<sub>j</sub>, q<sub>j</sub> &lt;= n - 1</code></li>\n\t<li><code>u<sub>i</sub> != v<sub>i</sub></code></li>\n\t<li><code>p<sub>j</sub> != q<sub>j</sub></code></li>\n\t<li><code>1 &lt;= dis<sub>i</sub>, limit<sub>j</sub> &lt;= 10<sup>9</sup></code></li>\n\t<li>There may be <strong>multiple</strong> edges between two nodes.</li>\n</ul>\n",
  "translatedTitle": null,
  "translatedContent": null,
  "isPaidOnly": false,
  "difficulty": "Hard",
  "likes": 193,
  "dislikes": 6,
  "isLiked": null,
  "similarQuestions": "[]",
  "contributors": [],
  "topicTags": [
    {
      "name": "Sort",
      "slug": "sort",
      "translatedName": null,
      "__typename": "TopicTagNode"
    },
    {
      "name": "Union Find",
      "slug": "union-find",
      "translatedName": null,
      "__typename": "TopicTagNode"
    }
  ],
  "companyTagStats": null,
  "codeSnippets": [
    {
      "lang": "C++",
      "langSlug": "cpp",
      "code": "class Solution {\npublic:\n    vector<bool> distanceLimitedPathsExist(int n, vector<vector<int>>& edgeList, vector<vector<int>>& queries) {\n        \n    }\n};",
      "__typename": "CodeSnippetNode"
    },
    {
      "lang": "Java",
      "langSlug": "java",
      "code": "class Solution {\n    public boolean[] distanceLimitedPathsExist(int n, int[][] edgeList, int[][] queries) {\n        \n    }\n}",
      "__typename": "CodeSnippetNode"
    },
    {
      "lang": "Python",
      "langSlug": "python",
      "code": "class Solution(object):\n    def distanceLimitedPathsExist(self, n, edgeList, queries):\n        \"\"\"\n        :type n: int\n        :type edgeList: List[List[int]]\n        :type queries: List[List[int]]\n        :rtype: List[bool]\n        \"\"\"\n        ",
      "__typename": "CodeSnippetNode"
    },
    {
      "lang": "Python3",
      "langSlug": "python3",
      "code": "class Solution:\n    def distanceLimitedPathsExist(self, n: int, edgeList: List[List[int]], queries: List[List[int]]) -> List[bool]:\n        ",
      "__typename": "CodeSnippetNode"
    },
    {
      "lang": "C",
      "langSlug": "c",
      "code": "\n\n/**\n * Note: The returned array must be malloced, assume caller calls free().\n */\nbool* distanceLimitedPathsExist(int n, int** edgeList, int edgeListSize, int* edgeListColSize, int** queries, int queriesSize, int* queriesColSize, int* returnSize){\n\n}",
      "__typename": "CodeSnippetNode"
    },
    {
      "lang": "C#",
      "langSlug": "csharp",
      "code": "public class Solution {\n    public bool[] DistanceLimitedPathsExist(int n, int[][] edgeList, int[][] queries) {\n        \n    }\n}",
      "__typename": "CodeSnippetNode"
    },
    {
      "lang": "JavaScript",
      "langSlug": "javascript",
      "code": "/**\n * @param {number} n\n * @param {number[][]} edgeList\n * @param {number[][]} queries\n * @return {boolean[]}\n */\nvar distanceLimitedPathsExist = function(n, edgeList, queries) {\n    \n};",
      "__typename": "CodeSnippetNode"
    },
    {
      "lang": "Ruby",
      "langSlug": "ruby",
      "code": "# @param {Integer} n\n# @param {Integer[][]} edge_list\n# @param {Integer[][]} queries\n# @return {Boolean[]}\ndef distance_limited_paths_exist(n, edge_list, queries)\n    \nend",
      "__typename": "CodeSnippetNode"
    },
    {
      "lang": "Swift",
      "langSlug": "swift",
      "code": "class Solution {\n    func distanceLimitedPathsExist(_ n: Int, _ edgeList: [[Int]], _ queries: [[Int]]) -> [Bool] {\n        \n    }\n}",
      "__typename": "CodeSnippetNode"
    },
    {
      "lang": "Go",
      "langSlug": "golang",
      "code": "func distanceLimitedPathsExist(n int, edgeList [][]int, queries [][]int) []bool {\n    \n}",
      "__typename": "CodeSnippetNode"
    },
    {
      "lang": "Scala",
      "langSlug": "scala",
      "code": "object Solution {\n    def distanceLimitedPathsExist(n: Int, edgeList: Array[Array[Int]], queries: Array[Array[Int]]): Array[Boolean] = {\n        \n    }\n}",
      "__typename": "CodeSnippetNode"
    },
    {
      "lang": "Kotlin",
      "langSlug": "kotlin",
      "code": "class Solution {\n    fun distanceLimitedPathsExist(n: Int, edgeList: Array<IntArray>, queries: Array<IntArray>): BooleanArray {\n        \n    }\n}",
      "__typename": "CodeSnippetNode"
    },
    {
      "lang": "Rust",
      "langSlug": "rust",
      "code": "impl Solution {\n    pub fn distance_limited_paths_exist(n: i32, edge_list: Vec<Vec<i32>>, queries: Vec<Vec<i32>>) -> Vec<bool> {\n        \n    }\n}",
      "__typename": "CodeSnippetNode"
    },
    {
      "lang": "PHP",
      "langSlug": "php",
      "code": "class Solution {\n\n    /**\n     * @param Integer $n\n     * @param Integer[][] $edgeList\n     * @param Integer[][] $queries\n     * @return Boolean[]\n     */\n    function distanceLimitedPathsExist($n, $edgeList, $queries) {\n        \n    }\n}",
      "__typename": "CodeSnippetNode"
    },
    {
      "lang": "TypeScript",
      "langSlug": "typescript",
      "code": "function distanceLimitedPathsExist(n: number, edgeList: number[][], queries: number[][]): boolean[] {\n\n};",
      "__typename": "CodeSnippetNode"
    }
  ],
  "stats": "{\"totalAccepted\": \"3.9K\", \"totalSubmission\": \"6.9K\", \"totalAcceptedRaw\": 3872, \"totalSubmissionRaw\": 6878, \"acRate\": \"56.3%\"}",
  "hints": [
    "All the queries are given in advance. Is there a way you can reorder the queries to avoid repeated computations?"
  ],
  "solution": null,
  "status": null,
  "sampleTestCase": "3\n[[0,1,2],[1,2,4],[2,0,8],[1,0,16]]\n[[0,1,2],[0,2,5]]",
  "metaData": "{\n  \"name\": \"distanceLimitedPathsExist\",\n  \"params\": [\n    {\n      \"name\": \"n\",\n      \"type\": \"integer\"\n    },\n    {\n      \"type\": \"integer[][]\",\n      \"name\": \"edgeList\"\n    },\n    {\n      \"type\": \"integer[][]\",\n      \"name\": \"queries\"\n    }\n  ],\n  \"return\": {\n    \"type\": \"boolean[]\"\n  }\n}",
  "judgerAvailable": true,
  "judgeType": "large",
  "mysqlSchemas": [],
  "enableRunCode": true,
  "enableTestMode": false,
  "enableDebugger": true,
  "envInfo": "{\"cpp\": [\"C++\", \"<p>Compiled with <code> clang 11 </code> using the latest C++ 17 standard.</p>\\r\\n\\r\\n<p>Your code is compiled with level one optimization (<code>-O1</code>). <a href=\\\"https://github.com/google/sanitizers/wiki/AddressSanitizer\\\" target=\\\"_blank\\\">AddressSanitizer</a> is also enabled to help detect out-of-bounds and use-after-free bugs.</p>\\r\\n\\r\\n<p>Most standard library headers are already included automatically for your convenience.</p>\"], \"java\": [\"Java\", \"<p><code>Java SE 13</code>.</p>\\r\\n\\r\\n<p>Most standard library headers are already included automatically for your convenience.</p>\\r\\n<p>Includes <code>Pair</code> class from https://docs.oracle.com/javase/8/javafx/api/javafx/util/Pair.html.</p>\"], \"python\": [\"Python\", \"<p><code>Python 2.7.12</code>.</p>\\r\\n\\r\\n<p>Most libraries are already imported automatically for your convenience, such as <a href=\\\"https://docs.python.org/2/library/array.html\\\" target=\\\"_blank\\\">array</a>, <a href=\\\"https://docs.python.org/2/library/bisect.html\\\" target=\\\"_blank\\\">bisect</a>, <a href=\\\"https://docs.python.org/2/library/collections.html\\\" target=\\\"_blank\\\">collections</a>. If you need more libraries, you can import it yourself.</p>\\r\\n\\r\\n<p>For Map/TreeMap data structure, you may use <a href=\\\"http://www.grantjenks.com/docs/sortedcontainers/\\\" target=\\\"_blank\\\">sortedcontainers</a> library.</p>\\r\\n\\r\\n<p>Note that Python 2.7 <a href=\\\"https://www.python.org/dev/peps/pep-0373/\\\" target=\\\"_blank\\\">will not be maintained past 2020</a>. For the latest Python, please choose Python3 instead.</p>\"], \"c\": [\"C\", \"<p>Compiled with <code>gcc 8.2</code> using the gnu99 standard.</p>\\r\\n\\r\\n<p>Your code is compiled with level one optimization (<code>-O1</code>). <a href=\\\"https://github.com/google/sanitizers/wiki/AddressSanitizer\\\" target=\\\"_blank\\\">AddressSanitizer</a> is also enabled to help detect out-of-bounds and use-after-free bugs.</p>\\r\\n\\r\\n<p>Most standard library headers are already included automatically for your convenience.</p>\\r\\n\\r\\n<p>For hash table operations, you may use <a href=\\\"https://troydhanson.github.io/uthash/\\\" target=\\\"_blank\\\">uthash</a>. \\\"uthash.h\\\" is included by default. Below are some examples:</p>\\r\\n\\r\\n<p><b>1. Adding an item to a hash.</b>\\r\\n<pre>\\r\\nstruct hash_entry {\\r\\n    int id;            /* we'll use this field as the key */\\r\\n    char name[10];\\r\\n    UT_hash_handle hh; /* makes this structure hashable */\\r\\n};\\r\\n\\r\\nstruct hash_entry *users = NULL;\\r\\n\\r\\nvoid add_user(struct hash_entry *s) {\\r\\n    HASH_ADD_INT(users, id, s);\\r\\n}\\r\\n</pre>\\r\\n</p>\\r\\n\\r\\n<p><b>2. Looking up an item in a hash:</b>\\r\\n<pre>\\r\\nstruct hash_entry *find_user(int user_id) {\\r\\n    struct hash_entry *s;\\r\\n    HASH_FIND_INT(users, &user_id, s);\\r\\n    return s;\\r\\n}\\r\\n</pre>\\r\\n</p>\\r\\n\\r\\n<p><b>3. Deleting an item in a hash:</b>\\r\\n<pre>\\r\\nvoid delete_user(struct hash_entry *user) {\\r\\n    HASH_DEL(users, user);  \\r\\n}\\r\\n</pre>\\r\\n</p>\"], \"csharp\": [\"C#\", \"<p><a href=\\\"https://docs.microsoft.com/en-us/dotnet/csharp/whats-new/csharp-8\\\" target=\\\"_blank\\\">C# 8.0 </a></p>\\r\\n\\r\\n<p>Your code is compiled with debug flag enabled (<code>/debug</code>).</p>\"], \"javascript\": [\"JavaScript\", \"<p><code>Node.js 14.3.0</code>.</p>\\r\\n\\r\\n<p>Your code is run with <code>--harmony</code> flag, enabling <a href=\\\"http://node.green/\\\" target=\\\"_blank\\\">new ES6 features</a>.</p>\\r\\n\\r\\n<p><a href=\\\"https://lodash.com\\\" target=\\\"_blank\\\">lodash.js</a> library is included by default.</p>\\r\\n\\r\\n<p>For Priority Queue / Queue data structures, you may use <a href=\\\"https://github.com/datastructures-js/priority-queue\\\" target=\\\"_blank\\\">datastructures-js/priority-queue</a> and <a href=\\\"https://github.com/datastructures-js/queue\\\" target=\\\"_blank\\\">datastructures-js/queue</a>.</p>\"], \"ruby\": [\"Ruby\", \"<p><code>Ruby 2.7.1</code></p>\\r\\n\\r\\n<p>Some common data structure implementations are provided in the Algorithms module: https://www.rubydoc.info/github/kanwei/algorithms/Algorithms</p>\"], \"swift\": [\"Swift\", \"<p><code>Swift 5.2.5</code>.</p>\"], \"golang\": [\"Go\", \"<p><code>Go 1.13</code>.</p>\"], \"python3\": [\"Python3\", \"<p><code>Python 3.9</code>.</p>\\r\\n\\r\\n<p>Most libraries are already imported automatically for your convenience, such as <a href=\\\"https://docs.python.org/3/library/array.html\\\" target=\\\"_blank\\\">array</a>, <a href=\\\"https://docs.python.org/3/library/bisect.html\\\" target=\\\"_blank\\\">bisect</a>, <a href=\\\"https://docs.python.org/3/library/collections.html\\\" target=\\\"_blank\\\">collections</a>. If you need more libraries, you can import it yourself.</p>\\r\\n\\r\\n<p>For Map/TreeMap data structure, you may use <a href=\\\"http://www.grantjenks.com/docs/sortedcontainers/\\\" target=\\\"_blank\\\">sortedcontainers</a> library.</p>\"], \"scala\": [\"Scala\", \"<p><code>Scala 2.13</code>.</p>\"], \"kotlin\": [\"Kotlin\", \"<p><code>Kotlin 1.3.10</code>.</p>\"], \"rust\": [\"Rust\", \"<p><code>Rust 1.40.0</code></p>\\r\\n\\r\\n<p>Supports <a href=\\\"https://crates.io/crates/rand\\\" target=\\\"_blank\\\">rand</a>\\u00a0from crates.io</p>\"], \"php\": [\"PHP\", \"<p><code>PHP 7.2</code>.</p>\\r\\n<p>With bcmath module</p>\"], \"typescript\": [\"Typescript\", \"<p><code>Node.js 14.3.0</code>.</p>\\r\\n\\r\\n<p>Your code is run with <code>--harmony</code> flag, enabling <a href=\\\"http://node.green/\\\" target=\\\"_blank\\\">new ES6 features</a>.</p>\\r\\n\\r\\n<p><a href=\\\"https://lodash.com\\\" target=\\\"_blank\\\">lodash.js</a> library is included by default.</p>\"]}",
  "libraryUrl": null,
  "adminUrl": null,
  "__typename": "QuestionNode"
}