{
  "questionId": "1814",
  "questionFrontendId": "1696",
  "boundTopicId": null,
  "title": "Jump Game VI",
  "titleSlug": "jump-game-vi",
  "content": "<p>You are given a <strong>0-indexed</strong> integer array <code>nums</code> and an integer <code>k</code>.</p>\n\n<p>You are initially standing at index <code>0</code>. In one move, you can jump at most <code>k</code> steps forward without going outside the boundaries of the array. That is, you can jump from index <code>i</code> to any index in the range <code>[i + 1, min(n - 1, i + k)]</code> <strong>inclusive</strong>.</p>\n\n<p>You want to reach the last index of the array (index <code>n - 1</code>). Your <strong>score</strong> is the <strong>sum</strong> of all <code>nums[j]</code> for each index <code>j</code> you visited in the array.</p>\n\n<p>Return <em>the <strong>maximum score</strong> you can get</em>.</p>\n\n<p>&nbsp;</p>\n<p><strong>Example 1:</strong></p>\n\n<pre>\n<strong>Input:</strong> nums = [<u>1</u>,<u>-1</u>,-2,<u>4</u>,-7,<u>3</u>], k = 2\n<strong>Output:</strong> 7\n<strong>Explanation:</strong> You can choose your jumps forming the subsequence [1,-1,4,3] (underlined above). The sum is 7.\n</pre>\n\n<p><strong>Example 2:</strong></p>\n\n<pre>\n<strong>Input:</strong> nums = [<u>10</u>,-5,-2,<u>4</u>,0,<u>3</u>], k = 3\n<strong>Output:</strong> 17\n<strong>Explanation:</strong> You can choose your jumps forming the subsequence [10,4,3] (underlined above). The sum is 17.\n</pre>\n\n<p><strong>Example 3:</strong></p>\n\n<pre>\n<strong>Input:</strong> nums = [1,-5,-20,4,-1,3,-6,-3], k = 2\n<strong>Output:</strong> 0\n</pre>\n\n<p>&nbsp;</p>\n<p><strong>Constraints:</strong></p>\n\n<ul>\n\t<li>&nbsp;<code>1 &lt;= nums.length, k &lt;= 10<sup>5</sup></code></li>\n\t<li><code>-10<sup>4</sup>&nbsp;&lt;= nums[i]&nbsp;&lt;= 10<sup>4</sup></code></li>\n</ul>\n",
  "translatedTitle": null,
  "translatedContent": null,
  "isPaidOnly": false,
  "difficulty": "Medium",
  "likes": 241,
  "dislikes": 18,
  "isLiked": null,
  "similarQuestions": "[{\"title\": \"Sliding Window Maximum\", \"titleSlug\": \"sliding-window-maximum\", \"difficulty\": \"Hard\", \"translatedTitle\": null}]",
  "contributors": [],
  "topicTags": [
    {
      "name": "Dequeue",
      "slug": "dequeue",
      "translatedName": null,
      "__typename": "TopicTagNode"
    }
  ],
  "companyTagStats": null,
  "codeSnippets": [
    {
      "lang": "C++",
      "langSlug": "cpp",
      "code": "class Solution {\npublic:\n    int maxResult(vector<int>& nums, int k) {\n        \n    }\n};",
      "__typename": "CodeSnippetNode"
    },
    {
      "lang": "Java",
      "langSlug": "java",
      "code": "class Solution {\n    public int maxResult(int[] nums, int k) {\n        \n    }\n}",
      "__typename": "CodeSnippetNode"
    },
    {
      "lang": "Python",
      "langSlug": "python",
      "code": "class Solution(object):\n    def maxResult(self, nums, k):\n        \"\"\"\n        :type nums: List[int]\n        :type k: int\n        :rtype: int\n        \"\"\"\n        ",
      "__typename": "CodeSnippetNode"
    },
    {
      "lang": "Python3",
      "langSlug": "python3",
      "code": "class Solution:\n    def maxResult(self, nums: List[int], k: int) -> int:\n        ",
      "__typename": "CodeSnippetNode"
    },
    {
      "lang": "C",
      "langSlug": "c",
      "code": "\n\nint maxResult(int* nums, int numsSize, int k){\n\n}",
      "__typename": "CodeSnippetNode"
    },
    {
      "lang": "C#",
      "langSlug": "csharp",
      "code": "public class Solution {\n    public int MaxResult(int[] nums, int k) {\n        \n    }\n}",
      "__typename": "CodeSnippetNode"
    },
    {
      "lang": "JavaScript",
      "langSlug": "javascript",
      "code": "/**\n * @param {number[]} nums\n * @param {number} k\n * @return {number}\n */\nvar maxResult = function(nums, k) {\n    \n};",
      "__typename": "CodeSnippetNode"
    },
    {
      "lang": "Ruby",
      "langSlug": "ruby",
      "code": "# @param {Integer[]} nums\n# @param {Integer} k\n# @return {Integer}\ndef max_result(nums, k)\n    \nend",
      "__typename": "CodeSnippetNode"
    },
    {
      "lang": "Swift",
      "langSlug": "swift",
      "code": "class Solution {\n    func maxResult(_ nums: [Int], _ k: Int) -> Int {\n        \n    }\n}",
      "__typename": "CodeSnippetNode"
    },
    {
      "lang": "Go",
      "langSlug": "golang",
      "code": "func maxResult(nums []int, k int) int {\n    \n}",
      "__typename": "CodeSnippetNode"
    },
    {
      "lang": "Scala",
      "langSlug": "scala",
      "code": "object Solution {\n    def maxResult(nums: Array[Int], k: Int): Int = {\n        \n    }\n}",
      "__typename": "CodeSnippetNode"
    },
    {
      "lang": "Kotlin",
      "langSlug": "kotlin",
      "code": "class Solution {\n    fun maxResult(nums: IntArray, k: Int): Int {\n        \n    }\n}",
      "__typename": "CodeSnippetNode"
    },
    {
      "lang": "Rust",
      "langSlug": "rust",
      "code": "impl Solution {\n    pub fn max_result(nums: Vec<i32>, k: i32) -> i32 {\n        \n    }\n}",
      "__typename": "CodeSnippetNode"
    },
    {
      "lang": "PHP",
      "langSlug": "php",
      "code": "class Solution {\n\n    /**\n     * @param Integer[] $nums\n     * @param Integer $k\n     * @return Integer\n     */\n    function maxResult($nums, $k) {\n        \n    }\n}",
      "__typename": "CodeSnippetNode"
    },
    {
      "lang": "TypeScript",
      "langSlug": "typescript",
      "code": "function maxResult(nums: number[], k: number): number {\n\n};",
      "__typename": "CodeSnippetNode"
    }
  ],
  "stats": "{\"totalAccepted\": \"9.6K\", \"totalSubmission\": \"17K\", \"totalAcceptedRaw\": 9637, \"totalSubmissionRaw\": 16990, \"acRate\": \"56.7%\"}",
  "hints": [
    "Let dp[i] be \"the maximum score to reach the end starting at index i\". The answer for dp[i] is nums[i] + min{dp[i+j]} for 1 <= j <= k. That gives an O(n*k) solution.",
    "Instead of checking every j for every i, keep track of the smallest dp[i] values in a heap and calculate dp[i] from right to left. When the smallest value in the heap is out of bounds of the current index, remove it and keep checking."
  ],
  "solution": {
    "id": "1087",
    "canSeeDetail": false,
    "paidOnly": true,
    "hasVideoSolution": false,
    "__typename": "ArticleNode"
  },
  "status": null,
  "sampleTestCase": "[1,-1,-2,4,-7,3]\n2",
  "metaData": "{\n  \"name\": \"maxResult\",\n  \"params\": [\n    {\n      \"name\": \"nums\",\n      \"type\": \"integer[]\"\n    },\n    {\n      \"type\": \"integer\",\n      \"name\": \"k\"\n    }\n  ],\n  \"return\": {\n    \"type\": \"integer\"\n  }\n}",
  "judgerAvailable": true,
  "judgeType": "large",
  "mysqlSchemas": [],
  "enableRunCode": true,
  "enableTestMode": false,
  "enableDebugger": true,
  "envInfo": "{\"cpp\": [\"C++\", \"<p>Compiled with <code> clang 11 </code> using the latest C++ 17 standard.</p>\\r\\n\\r\\n<p>Your code is compiled with level one optimization (<code>-O1</code>). <a href=\\\"https://github.com/google/sanitizers/wiki/AddressSanitizer\\\" target=\\\"_blank\\\">AddressSanitizer</a> is also enabled to help detect out-of-bounds and use-after-free bugs.</p>\\r\\n\\r\\n<p>Most standard library headers are already included automatically for your convenience.</p>\"], \"java\": [\"Java\", \"<p><code>Java SE 13</code>.</p>\\r\\n\\r\\n<p>Most standard library headers are already included automatically for your convenience.</p>\\r\\n<p>Includes <code>Pair</code> class from https://docs.oracle.com/javase/8/javafx/api/javafx/util/Pair.html.</p>\"], \"python\": [\"Python\", \"<p><code>Python 2.7.12</code>.</p>\\r\\n\\r\\n<p>Most libraries are already imported automatically for your convenience, such as <a href=\\\"https://docs.python.org/2/library/array.html\\\" target=\\\"_blank\\\">array</a>, <a href=\\\"https://docs.python.org/2/library/bisect.html\\\" target=\\\"_blank\\\">bisect</a>, <a href=\\\"https://docs.python.org/2/library/collections.html\\\" target=\\\"_blank\\\">collections</a>. If you need more libraries, you can import it yourself.</p>\\r\\n\\r\\n<p>For Map/TreeMap data structure, you may use <a href=\\\"http://www.grantjenks.com/docs/sortedcontainers/\\\" target=\\\"_blank\\\">sortedcontainers</a> library.</p>\\r\\n\\r\\n<p>Note that Python 2.7 <a href=\\\"https://www.python.org/dev/peps/pep-0373/\\\" target=\\\"_blank\\\">will not be maintained past 2020</a>. For the latest Python, please choose Python3 instead.</p>\"], \"c\": [\"C\", \"<p>Compiled with <code>gcc 8.2</code> using the gnu99 standard.</p>\\r\\n\\r\\n<p>Your code is compiled with level one optimization (<code>-O1</code>). <a href=\\\"https://github.com/google/sanitizers/wiki/AddressSanitizer\\\" target=\\\"_blank\\\">AddressSanitizer</a> is also enabled to help detect out-of-bounds and use-after-free bugs.</p>\\r\\n\\r\\n<p>Most standard library headers are already included automatically for your convenience.</p>\\r\\n\\r\\n<p>For hash table operations, you may use <a href=\\\"https://troydhanson.github.io/uthash/\\\" target=\\\"_blank\\\">uthash</a>. \\\"uthash.h\\\" is included by default. Below are some examples:</p>\\r\\n\\r\\n<p><b>1. Adding an item to a hash.</b>\\r\\n<pre>\\r\\nstruct hash_entry {\\r\\n    int id;            /* we'll use this field as the key */\\r\\n    char name[10];\\r\\n    UT_hash_handle hh; /* makes this structure hashable */\\r\\n};\\r\\n\\r\\nstruct hash_entry *users = NULL;\\r\\n\\r\\nvoid add_user(struct hash_entry *s) {\\r\\n    HASH_ADD_INT(users, id, s);\\r\\n}\\r\\n</pre>\\r\\n</p>\\r\\n\\r\\n<p><b>2. Looking up an item in a hash:</b>\\r\\n<pre>\\r\\nstruct hash_entry *find_user(int user_id) {\\r\\n    struct hash_entry *s;\\r\\n    HASH_FIND_INT(users, &user_id, s);\\r\\n    return s;\\r\\n}\\r\\n</pre>\\r\\n</p>\\r\\n\\r\\n<p><b>3. Deleting an item in a hash:</b>\\r\\n<pre>\\r\\nvoid delete_user(struct hash_entry *user) {\\r\\n    HASH_DEL(users, user);  \\r\\n}\\r\\n</pre>\\r\\n</p>\"], \"csharp\": [\"C#\", \"<p><a href=\\\"https://docs.microsoft.com/en-us/dotnet/csharp/whats-new/csharp-8\\\" target=\\\"_blank\\\">C# 8.0 </a></p>\\r\\n\\r\\n<p>Your code is compiled with debug flag enabled (<code>/debug</code>).</p>\"], \"javascript\": [\"JavaScript\", \"<p><code>Node.js 14.3.0</code>.</p>\\r\\n\\r\\n<p>Your code is run with <code>--harmony</code> flag, enabling <a href=\\\"http://node.green/\\\" target=\\\"_blank\\\">new ES6 features</a>.</p>\\r\\n\\r\\n<p><a href=\\\"https://lodash.com\\\" target=\\\"_blank\\\">lodash.js</a> library is included by default.</p>\\r\\n\\r\\n<p>For Priority Queue / Queue data structures, you may use <a href=\\\"https://github.com/datastructures-js/priority-queue\\\" target=\\\"_blank\\\">datastructures-js/priority-queue</a> and <a href=\\\"https://github.com/datastructures-js/queue\\\" target=\\\"_blank\\\">datastructures-js/queue</a>.</p>\"], \"ruby\": [\"Ruby\", \"<p><code>Ruby 2.7.1</code></p>\\r\\n\\r\\n<p>Some common data structure implementations are provided in the Algorithms module: https://www.rubydoc.info/github/kanwei/algorithms/Algorithms</p>\"], \"swift\": [\"Swift\", \"<p><code>Swift 5.2.5</code>.</p>\"], \"golang\": [\"Go\", \"<p><code>Go 1.13</code>.</p>\"], \"python3\": [\"Python3\", \"<p><code>Python 3.9</code>.</p>\\r\\n\\r\\n<p>Most libraries are already imported automatically for your convenience, such as <a href=\\\"https://docs.python.org/3/library/array.html\\\" target=\\\"_blank\\\">array</a>, <a href=\\\"https://docs.python.org/3/library/bisect.html\\\" target=\\\"_blank\\\">bisect</a>, <a href=\\\"https://docs.python.org/3/library/collections.html\\\" target=\\\"_blank\\\">collections</a>. If you need more libraries, you can import it yourself.</p>\\r\\n\\r\\n<p>For Map/TreeMap data structure, you may use <a href=\\\"http://www.grantjenks.com/docs/sortedcontainers/\\\" target=\\\"_blank\\\">sortedcontainers</a> library.</p>\"], \"scala\": [\"Scala\", \"<p><code>Scala 2.13</code>.</p>\"], \"kotlin\": [\"Kotlin\", \"<p><code>Kotlin 1.3.10</code>.</p>\"], \"rust\": [\"Rust\", \"<p><code>Rust 1.40.0</code></p>\\r\\n\\r\\n<p>Supports <a href=\\\"https://crates.io/crates/rand\\\" target=\\\"_blank\\\">rand</a>\\u00a0from crates.io</p>\"], \"php\": [\"PHP\", \"<p><code>PHP 7.2</code>.</p>\\r\\n<p>With bcmath module</p>\"], \"typescript\": [\"Typescript\", \"<p><code>Node.js 14.3.0</code>.</p>\\r\\n\\r\\n<p>Your code is run with <code>--harmony</code> flag, enabling <a href=\\\"http://node.green/\\\" target=\\\"_blank\\\">new ES6 features</a>.</p>\\r\\n\\r\\n<p><a href=\\\"https://lodash.com\\\" target=\\\"_blank\\\">lodash.js</a> library is included by default.</p>\"]}",
  "libraryUrl": null,
  "adminUrl": null,
  "__typename": "QuestionNode"
}