{
  "questionId": "1807",
  "questionFrontendId": "1689",
  "boundTopicId": null,
  "title": "Partitioning Into Minimum Number Of Deci-Binary Numbers",
  "titleSlug": "partitioning-into-minimum-number-of-deci-binary-numbers",
  "content": "<p>A decimal number is called <strong>deci-binary</strong> if each of its digits is either <code>0</code> or <code>1</code> without any leading zeros. For example, <code>101</code> and <code>1100</code> are <strong>deci-binary</strong>, while <code>112</code> and <code>3001</code> are not.</p>\r\n\r\n<p>Given a string <code>n</code> that represents a positive decimal integer, return <em>the <strong>minimum</strong> number of positive <strong>deci-binary</strong> numbers needed so that they sum up to </em><code>n</code><em>.</em></p>\r\n\r\n<p>&nbsp;</p>\r\n<p><strong>Example 1:</strong></p>\r\n\r\n<pre>\r\n<strong>Input:</strong> n = &quot;32&quot;\r\n<strong>Output:</strong> 3\r\n<strong>Explanation:</strong> 10 + 11 + 11 = 32\r\n</pre>\r\n\r\n<p><strong>Example 2:</strong></p>\r\n\r\n<pre>\r\n<strong>Input:</strong> n = &quot;82734&quot;\r\n<strong>Output:</strong> 8\r\n</pre>\r\n\r\n<p><strong>Example 3:</strong></p>\r\n\r\n<pre>\r\n<strong>Input:</strong> n = &quot;27346209830709182346&quot;\r\n<strong>Output:</strong> 9\r\n</pre>\r\n\r\n<p>&nbsp;</p>\r\n<p><strong>Constraints:</strong></p>\r\n\r\n<ul>\r\n\t<li><code>1 &lt;= n.length &lt;= 10<sup>5</sup></code></li>\r\n\t<li><code>n</code> consists of only digits.</li>\r\n\t<li><code>n</code> does not contain any leading zeros and represents a positive integer.</li>\r\n</ul>",
  "translatedTitle": null,
  "translatedContent": null,
  "isPaidOnly": false,
  "difficulty": "Medium",
  "likes": 103,
  "dislikes": 79,
  "isLiked": null,
  "similarQuestions": "[]",
  "contributors": [],
  "topicTags": [
    {
      "name": "Greedy",
      "slug": "greedy",
      "translatedName": null,
      "__typename": "TopicTagNode"
    }
  ],
  "companyTagStats": null,
  "codeSnippets": [
    {
      "lang": "C++",
      "langSlug": "cpp",
      "code": "class Solution {\npublic:\n    int minPartitions(string n) {\n        \n    }\n};",
      "__typename": "CodeSnippetNode"
    },
    {
      "lang": "Java",
      "langSlug": "java",
      "code": "class Solution {\n    public int minPartitions(String n) {\n        \n    }\n}",
      "__typename": "CodeSnippetNode"
    },
    {
      "lang": "Python",
      "langSlug": "python",
      "code": "class Solution(object):\n    def minPartitions(self, n):\n        \"\"\"\n        :type n: str\n        :rtype: int\n        \"\"\"\n        ",
      "__typename": "CodeSnippetNode"
    },
    {
      "lang": "Python3",
      "langSlug": "python3",
      "code": "class Solution:\n    def minPartitions(self, n: str) -> int:\n        ",
      "__typename": "CodeSnippetNode"
    },
    {
      "lang": "C",
      "langSlug": "c",
      "code": "\n\nint minPartitions(char * n){\n\n}",
      "__typename": "CodeSnippetNode"
    },
    {
      "lang": "C#",
      "langSlug": "csharp",
      "code": "public class Solution {\n    public int MinPartitions(string n) {\n        \n    }\n}",
      "__typename": "CodeSnippetNode"
    },
    {
      "lang": "JavaScript",
      "langSlug": "javascript",
      "code": "/**\n * @param {string} n\n * @return {number}\n */\nvar minPartitions = function(n) {\n    \n};",
      "__typename": "CodeSnippetNode"
    },
    {
      "lang": "Ruby",
      "langSlug": "ruby",
      "code": "# @param {String} n\n# @return {Integer}\ndef min_partitions(n)\n    \nend",
      "__typename": "CodeSnippetNode"
    },
    {
      "lang": "Swift",
      "langSlug": "swift",
      "code": "class Solution {\n    func minPartitions(_ n: String) -> Int {\n        \n    }\n}",
      "__typename": "CodeSnippetNode"
    },
    {
      "lang": "Go",
      "langSlug": "golang",
      "code": "func minPartitions(n string) int {\n    \n}",
      "__typename": "CodeSnippetNode"
    },
    {
      "lang": "Scala",
      "langSlug": "scala",
      "code": "object Solution {\n    def minPartitions(n: String): Int = {\n        \n    }\n}",
      "__typename": "CodeSnippetNode"
    },
    {
      "lang": "Kotlin",
      "langSlug": "kotlin",
      "code": "class Solution {\n    fun minPartitions(n: String): Int {\n        \n    }\n}",
      "__typename": "CodeSnippetNode"
    },
    {
      "lang": "Rust",
      "langSlug": "rust",
      "code": "impl Solution {\n    pub fn min_partitions(n: String) -> i32 {\n        \n    }\n}",
      "__typename": "CodeSnippetNode"
    },
    {
      "lang": "PHP",
      "langSlug": "php",
      "code": "class Solution {\n\n    /**\n     * @param String $n\n     * @return Integer\n     */\n    function minPartitions($n) {\n        \n    }\n}",
      "__typename": "CodeSnippetNode"
    },
    {
      "lang": "TypeScript",
      "langSlug": "typescript",
      "code": "function minPartitions(n: string): number {\n\n};",
      "__typename": "CodeSnippetNode"
    }
  ],
  "stats": "{\"totalAccepted\": \"10.9K\", \"totalSubmission\": \"12.4K\", \"totalAcceptedRaw\": 10918, \"totalSubmissionRaw\": 12351, \"acRate\": \"88.4%\"}",
  "hints": [
    "Think about if the input was only one digit. Then you need to add up as many ones as the value of this digit.",
    "If the input has multiple digits, then you can solve for each digit independently, and merge the answers to form numbers that add up to that input.",
    "Thus the answer is equal to the max digit."
  ],
  "solution": {
    "id": "1079",
    "canSeeDetail": false,
    "paidOnly": true,
    "hasVideoSolution": false,
    "__typename": "ArticleNode"
  },
  "status": null,
  "sampleTestCase": "\"32\"",
  "metaData": "{\n  \"name\": \"minPartitions\",\n  \"params\": [\n    {\n      \"name\": \"n\",\n      \"type\": \"string\"\n    }\n  ],\n  \"return\": {\n    \"type\": \"integer\"\n  }\n}",
  "judgerAvailable": true,
  "judgeType": "large",
  "mysqlSchemas": [],
  "enableRunCode": true,
  "enableTestMode": false,
  "enableDebugger": true,
  "envInfo": "{\"cpp\": [\"C++\", \"<p>Compiled with <code> clang 11 </code> using the latest C++ 17 standard.</p>\\r\\n\\r\\n<p>Your code is compiled with level one optimization (<code>-O1</code>). <a href=\\\"https://github.com/google/sanitizers/wiki/AddressSanitizer\\\" target=\\\"_blank\\\">AddressSanitizer</a> is also enabled to help detect out-of-bounds and use-after-free bugs.</p>\\r\\n\\r\\n<p>Most standard library headers are already included automatically for your convenience.</p>\"], \"java\": [\"Java\", \"<p><code>Java SE 13</code>.</p>\\r\\n\\r\\n<p>Most standard library headers are already included automatically for your convenience.</p>\\r\\n<p>Includes <code>Pair</code> class from https://docs.oracle.com/javase/8/javafx/api/javafx/util/Pair.html.</p>\"], \"python\": [\"Python\", \"<p><code>Python 2.7.12</code>.</p>\\r\\n\\r\\n<p>Most libraries are already imported automatically for your convenience, such as <a href=\\\"https://docs.python.org/2/library/array.html\\\" target=\\\"_blank\\\">array</a>, <a href=\\\"https://docs.python.org/2/library/bisect.html\\\" target=\\\"_blank\\\">bisect</a>, <a href=\\\"https://docs.python.org/2/library/collections.html\\\" target=\\\"_blank\\\">collections</a>. If you need more libraries, you can import it yourself.</p>\\r\\n\\r\\n<p>For Map/TreeMap data structure, you may use <a href=\\\"http://www.grantjenks.com/docs/sortedcontainers/\\\" target=\\\"_blank\\\">sortedcontainers</a> library.</p>\\r\\n\\r\\n<p>Note that Python 2.7 <a href=\\\"https://www.python.org/dev/peps/pep-0373/\\\" target=\\\"_blank\\\">will not be maintained past 2020</a>. For the latest Python, please choose Python3 instead.</p>\"], \"c\": [\"C\", \"<p>Compiled with <code>gcc 8.2</code> using the gnu99 standard.</p>\\r\\n\\r\\n<p>Your code is compiled with level one optimization (<code>-O1</code>). <a href=\\\"https://github.com/google/sanitizers/wiki/AddressSanitizer\\\" target=\\\"_blank\\\">AddressSanitizer</a> is also enabled to help detect out-of-bounds and use-after-free bugs.</p>\\r\\n\\r\\n<p>Most standard library headers are already included automatically for your convenience.</p>\\r\\n\\r\\n<p>For hash table operations, you may use <a href=\\\"https://troydhanson.github.io/uthash/\\\" target=\\\"_blank\\\">uthash</a>. \\\"uthash.h\\\" is included by default. Below are some examples:</p>\\r\\n\\r\\n<p><b>1. Adding an item to a hash.</b>\\r\\n<pre>\\r\\nstruct hash_entry {\\r\\n    int id;            /* we'll use this field as the key */\\r\\n    char name[10];\\r\\n    UT_hash_handle hh; /* makes this structure hashable */\\r\\n};\\r\\n\\r\\nstruct hash_entry *users = NULL;\\r\\n\\r\\nvoid add_user(struct hash_entry *s) {\\r\\n    HASH_ADD_INT(users, id, s);\\r\\n}\\r\\n</pre>\\r\\n</p>\\r\\n\\r\\n<p><b>2. Looking up an item in a hash:</b>\\r\\n<pre>\\r\\nstruct hash_entry *find_user(int user_id) {\\r\\n    struct hash_entry *s;\\r\\n    HASH_FIND_INT(users, &user_id, s);\\r\\n    return s;\\r\\n}\\r\\n</pre>\\r\\n</p>\\r\\n\\r\\n<p><b>3. Deleting an item in a hash:</b>\\r\\n<pre>\\r\\nvoid delete_user(struct hash_entry *user) {\\r\\n    HASH_DEL(users, user);  \\r\\n}\\r\\n</pre>\\r\\n</p>\"], \"csharp\": [\"C#\", \"<p><a href=\\\"https://docs.microsoft.com/en-us/dotnet/csharp/whats-new/csharp-8\\\" target=\\\"_blank\\\">C# 8.0 </a></p>\\r\\n\\r\\n<p>Your code is compiled with debug flag enabled (<code>/debug</code>).</p>\"], \"javascript\": [\"JavaScript\", \"<p><code>Node.js 14.3.0</code>.</p>\\r\\n\\r\\n<p>Your code is run with <code>--harmony</code> flag, enabling <a href=\\\"http://node.green/\\\" target=\\\"_blank\\\">new ES6 features</a>.</p>\\r\\n\\r\\n<p><a href=\\\"https://lodash.com\\\" target=\\\"_blank\\\">lodash.js</a> library is included by default.</p>\\r\\n\\r\\n<p>For Priority Queue / Queue data structures, you may use <a href=\\\"https://github.com/datastructures-js/priority-queue\\\" target=\\\"_blank\\\">datastructures-js/priority-queue</a> and <a href=\\\"https://github.com/datastructures-js/queue\\\" target=\\\"_blank\\\">datastructures-js/queue</a>.</p>\"], \"ruby\": [\"Ruby\", \"<p><code>Ruby 2.7.1</code></p>\\r\\n\\r\\n<p>Some common data structure implementations are provided in the Algorithms module: https://www.rubydoc.info/github/kanwei/algorithms/Algorithms</p>\"], \"swift\": [\"Swift\", \"<p><code>Swift 5.2.5</code>.</p>\"], \"golang\": [\"Go\", \"<p><code>Go 1.13</code>.</p>\"], \"python3\": [\"Python3\", \"<p><code>Python 3.9</code>.</p>\\r\\n\\r\\n<p>Most libraries are already imported automatically for your convenience, such as <a href=\\\"https://docs.python.org/3/library/array.html\\\" target=\\\"_blank\\\">array</a>, <a href=\\\"https://docs.python.org/3/library/bisect.html\\\" target=\\\"_blank\\\">bisect</a>, <a href=\\\"https://docs.python.org/3/library/collections.html\\\" target=\\\"_blank\\\">collections</a>. If you need more libraries, you can import it yourself.</p>\\r\\n\\r\\n<p>For Map/TreeMap data structure, you may use <a href=\\\"http://www.grantjenks.com/docs/sortedcontainers/\\\" target=\\\"_blank\\\">sortedcontainers</a> library.</p>\"], \"scala\": [\"Scala\", \"<p><code>Scala 2.13</code>.</p>\"], \"kotlin\": [\"Kotlin\", \"<p><code>Kotlin 1.3.10</code>.</p>\"], \"rust\": [\"Rust\", \"<p><code>Rust 1.40.0</code></p>\\r\\n\\r\\n<p>Supports <a href=\\\"https://crates.io/crates/rand\\\" target=\\\"_blank\\\">rand</a>\\u00a0from crates.io</p>\"], \"php\": [\"PHP\", \"<p><code>PHP 7.2</code>.</p>\\r\\n<p>With bcmath module</p>\"], \"typescript\": [\"Typescript\", \"<p><code>Node.js 14.3.0</code>.</p>\\r\\n\\r\\n<p>Your code is run with <code>--harmony</code> flag, enabling <a href=\\\"http://node.green/\\\" target=\\\"_blank\\\">new ES6 features</a>.</p>\\r\\n\\r\\n<p><a href=\\\"https://lodash.com\\\" target=\\\"_blank\\\">lodash.js</a> library is included by default.</p>\"]}",
  "libraryUrl": null,
  "adminUrl": null,
  "__typename": "QuestionNode"
}