{
  "questionId": "1808",
  "questionFrontendId": "1690",
  "boundTopicId": null,
  "title": "Stone Game VII",
  "titleSlug": "stone-game-vii",
  "content": "<p>Alice and Bob take turns playing a game, with <strong>Alice starting first</strong>.</p>\n\n<p>There are <code>n</code> stones arranged in a row. On each player&#39;s turn, they can <strong>remove</strong> either the leftmost stone or the rightmost stone from the row and receive points equal to the <strong>sum</strong> of the remaining stones&#39; values in the row. The winner is the one with the higher score when there are no stones left to remove.</p>\n\n<p>Bob found that he will always lose this game (poor Bob, he always loses), so he decided to <strong>minimize the score&#39;s difference</strong>. Alice&#39;s goal is to <strong>maximize the difference</strong> in the score.</p>\n\n<p>Given an array of integers <code>stones</code> where <code>stones[i]</code> represents the value of the <code>i<sup>th</sup></code> stone <strong>from the left</strong>, return <em>the <strong>difference</strong> in Alice and Bob&#39;s score if they both play <strong>optimally</strong>.</em></p>\n\n<p>&nbsp;</p>\n<p><strong>Example 1:</strong></p>\n\n<pre>\n<strong>Input:</strong> stones = [5,3,1,4,2]\n<strong>Output:</strong> 6\n<strong>Explanation:</strong> \n- Alice removes 2 and gets 5 + 3 + 1 + 4 = 13 points. Alice = 13, Bob = 0, stones = [5,3,1,4].\n- Bob removes 5 and gets 3 + 1 + 4 = 8 points. Alice = 13, Bob = 8, stones = [3,1,4].\n- Alice removes 3 and gets 1 + 4 = 5 points. Alice = 18, Bob = 8, stones = [1,4].\n- Bob removes 1 and gets 4 points. Alice = 18, Bob = 12, stones = [4].\n- Alice removes 4 and gets 0 points. Alice = 18, Bob = 12, stones = [].\nThe score difference is 18 - 12 = 6.\n</pre>\n\n<p><strong>Example 2:</strong></p>\n\n<pre>\n<strong>Input:</strong> stones = [7,90,5,1,100,10,10,2]\n<strong>Output:</strong> 122</pre>\n\n<p>&nbsp;</p>\n<p><strong>Constraints:</strong></p>\n\n<ul>\n\t<li><code>n == stones.length</code></li>\n\t<li><code>2 &lt;= n &lt;= 1000</code></li>\n\t<li><code>1 &lt;= stones[i] &lt;= 1000</code></li>\n</ul>\n",
  "translatedTitle": null,
  "translatedContent": null,
  "isPaidOnly": false,
  "difficulty": "Medium",
  "likes": 154,
  "dislikes": 66,
  "isLiked": null,
  "similarQuestions": "[{\"title\": \"Stone Game\", \"titleSlug\": \"stone-game\", \"difficulty\": \"Medium\", \"translatedTitle\": null}, {\"title\": \"Stone Game II\", \"titleSlug\": \"stone-game-ii\", \"difficulty\": \"Medium\", \"translatedTitle\": null}, {\"title\": \"Stone Game III\", \"titleSlug\": \"stone-game-iii\", \"difficulty\": \"Hard\", \"translatedTitle\": null}, {\"title\": \"Stone Game IV\", \"titleSlug\": \"stone-game-iv\", \"difficulty\": \"Hard\", \"translatedTitle\": null}, {\"title\": \"Stone Game V\", \"titleSlug\": \"stone-game-v\", \"difficulty\": \"Hard\", \"translatedTitle\": null}, {\"title\": \"Stone Game VI\", \"titleSlug\": \"stone-game-vi\", \"difficulty\": \"Medium\", \"translatedTitle\": null}]",
  "contributors": [],
  "topicTags": [
    {
      "name": "Dynamic Programming",
      "slug": "dynamic-programming",
      "translatedName": null,
      "__typename": "TopicTagNode"
    }
  ],
  "companyTagStats": null,
  "codeSnippets": [
    {
      "lang": "C++",
      "langSlug": "cpp",
      "code": "class Solution {\npublic:\n    int stoneGameVII(vector<int>& stones) {\n        \n    }\n};",
      "__typename": "CodeSnippetNode"
    },
    {
      "lang": "Java",
      "langSlug": "java",
      "code": "class Solution {\n    public int stoneGameVII(int[] stones) {\n        \n    }\n}",
      "__typename": "CodeSnippetNode"
    },
    {
      "lang": "Python",
      "langSlug": "python",
      "code": "class Solution(object):\n    def stoneGameVII(self, stones):\n        \"\"\"\n        :type stones: List[int]\n        :rtype: int\n        \"\"\"\n        ",
      "__typename": "CodeSnippetNode"
    },
    {
      "lang": "Python3",
      "langSlug": "python3",
      "code": "class Solution:\n    def stoneGameVII(self, stones: List[int]) -> int:\n        ",
      "__typename": "CodeSnippetNode"
    },
    {
      "lang": "C",
      "langSlug": "c",
      "code": "\n\nint stoneGameVII(int* stones, int stonesSize){\n\n}",
      "__typename": "CodeSnippetNode"
    },
    {
      "lang": "C#",
      "langSlug": "csharp",
      "code": "public class Solution {\n    public int StoneGameVII(int[] stones) {\n        \n    }\n}",
      "__typename": "CodeSnippetNode"
    },
    {
      "lang": "JavaScript",
      "langSlug": "javascript",
      "code": "/**\n * @param {number[]} stones\n * @return {number}\n */\nvar stoneGameVII = function(stones) {\n    \n};",
      "__typename": "CodeSnippetNode"
    },
    {
      "lang": "Ruby",
      "langSlug": "ruby",
      "code": "# @param {Integer[]} stones\n# @return {Integer}\ndef stone_game_vii(stones)\n    \nend",
      "__typename": "CodeSnippetNode"
    },
    {
      "lang": "Swift",
      "langSlug": "swift",
      "code": "class Solution {\n    func stoneGameVII(_ stones: [Int]) -> Int {\n        \n    }\n}",
      "__typename": "CodeSnippetNode"
    },
    {
      "lang": "Go",
      "langSlug": "golang",
      "code": "func stoneGameVII(stones []int) int {\n    \n}",
      "__typename": "CodeSnippetNode"
    },
    {
      "lang": "Scala",
      "langSlug": "scala",
      "code": "object Solution {\n    def stoneGameVII(stones: Array[Int]): Int = {\n        \n    }\n}",
      "__typename": "CodeSnippetNode"
    },
    {
      "lang": "Kotlin",
      "langSlug": "kotlin",
      "code": "class Solution {\n    fun stoneGameVII(stones: IntArray): Int {\n        \n    }\n}",
      "__typename": "CodeSnippetNode"
    },
    {
      "lang": "Rust",
      "langSlug": "rust",
      "code": "impl Solution {\n    pub fn stone_game_vii(stones: Vec<i32>) -> i32 {\n        \n    }\n}",
      "__typename": "CodeSnippetNode"
    },
    {
      "lang": "PHP",
      "langSlug": "php",
      "code": "class Solution {\n\n    /**\n     * @param Integer[] $stones\n     * @return Integer\n     */\n    function stoneGameVII($stones) {\n        \n    }\n}",
      "__typename": "CodeSnippetNode"
    },
    {
      "lang": "TypeScript",
      "langSlug": "typescript",
      "code": "function stoneGameVII(stones: number[]): number {\n\n};",
      "__typename": "CodeSnippetNode"
    }
  ],
  "stats": "{\"totalAccepted\": \"5.4K\", \"totalSubmission\": \"11.8K\", \"totalAcceptedRaw\": 5444, \"totalSubmissionRaw\": 11774, \"acRate\": \"46.2%\"}",
  "hints": [
    "The constraints are small enough for an N^2 solution.",
    "Try using dynamic programming."
  ],
  "solution": {
    "id": "1080",
    "canSeeDetail": false,
    "paidOnly": true,
    "hasVideoSolution": false,
    "__typename": "ArticleNode"
  },
  "status": null,
  "sampleTestCase": "[5,3,1,4,2]",
  "metaData": "{\n  \"name\": \"stoneGameVII\",\n  \"params\": [\n    {\n      \"name\": \"stones\",\n      \"type\": \"integer[]\"\n    }\n  ],\n  \"return\": {\n    \"type\": \"integer\"\n  }\n}",
  "judgerAvailable": true,
  "judgeType": "large",
  "mysqlSchemas": [],
  "enableRunCode": true,
  "enableTestMode": false,
  "enableDebugger": true,
  "envInfo": "{\"cpp\": [\"C++\", \"<p>Compiled with <code> clang 11 </code> using the latest C++ 17 standard.</p>\\r\\n\\r\\n<p>Your code is compiled with level one optimization (<code>-O1</code>). <a href=\\\"https://github.com/google/sanitizers/wiki/AddressSanitizer\\\" target=\\\"_blank\\\">AddressSanitizer</a> is also enabled to help detect out-of-bounds and use-after-free bugs.</p>\\r\\n\\r\\n<p>Most standard library headers are already included automatically for your convenience.</p>\"], \"java\": [\"Java\", \"<p><code>Java SE 13</code>.</p>\\r\\n\\r\\n<p>Most standard library headers are already included automatically for your convenience.</p>\\r\\n<p>Includes <code>Pair</code> class from https://docs.oracle.com/javase/8/javafx/api/javafx/util/Pair.html.</p>\"], \"python\": [\"Python\", \"<p><code>Python 2.7.12</code>.</p>\\r\\n\\r\\n<p>Most libraries are already imported automatically for your convenience, such as <a href=\\\"https://docs.python.org/2/library/array.html\\\" target=\\\"_blank\\\">array</a>, <a href=\\\"https://docs.python.org/2/library/bisect.html\\\" target=\\\"_blank\\\">bisect</a>, <a href=\\\"https://docs.python.org/2/library/collections.html\\\" target=\\\"_blank\\\">collections</a>. If you need more libraries, you can import it yourself.</p>\\r\\n\\r\\n<p>For Map/TreeMap data structure, you may use <a href=\\\"http://www.grantjenks.com/docs/sortedcontainers/\\\" target=\\\"_blank\\\">sortedcontainers</a> library.</p>\\r\\n\\r\\n<p>Note that Python 2.7 <a href=\\\"https://www.python.org/dev/peps/pep-0373/\\\" target=\\\"_blank\\\">will not be maintained past 2020</a>. For the latest Python, please choose Python3 instead.</p>\"], \"c\": [\"C\", \"<p>Compiled with <code>gcc 8.2</code> using the gnu99 standard.</p>\\r\\n\\r\\n<p>Your code is compiled with level one optimization (<code>-O1</code>). <a href=\\\"https://github.com/google/sanitizers/wiki/AddressSanitizer\\\" target=\\\"_blank\\\">AddressSanitizer</a> is also enabled to help detect out-of-bounds and use-after-free bugs.</p>\\r\\n\\r\\n<p>Most standard library headers are already included automatically for your convenience.</p>\\r\\n\\r\\n<p>For hash table operations, you may use <a href=\\\"https://troydhanson.github.io/uthash/\\\" target=\\\"_blank\\\">uthash</a>. \\\"uthash.h\\\" is included by default. Below are some examples:</p>\\r\\n\\r\\n<p><b>1. Adding an item to a hash.</b>\\r\\n<pre>\\r\\nstruct hash_entry {\\r\\n    int id;            /* we'll use this field as the key */\\r\\n    char name[10];\\r\\n    UT_hash_handle hh; /* makes this structure hashable */\\r\\n};\\r\\n\\r\\nstruct hash_entry *users = NULL;\\r\\n\\r\\nvoid add_user(struct hash_entry *s) {\\r\\n    HASH_ADD_INT(users, id, s);\\r\\n}\\r\\n</pre>\\r\\n</p>\\r\\n\\r\\n<p><b>2. Looking up an item in a hash:</b>\\r\\n<pre>\\r\\nstruct hash_entry *find_user(int user_id) {\\r\\n    struct hash_entry *s;\\r\\n    HASH_FIND_INT(users, &user_id, s);\\r\\n    return s;\\r\\n}\\r\\n</pre>\\r\\n</p>\\r\\n\\r\\n<p><b>3. Deleting an item in a hash:</b>\\r\\n<pre>\\r\\nvoid delete_user(struct hash_entry *user) {\\r\\n    HASH_DEL(users, user);  \\r\\n}\\r\\n</pre>\\r\\n</p>\"], \"csharp\": [\"C#\", \"<p><a href=\\\"https://docs.microsoft.com/en-us/dotnet/csharp/whats-new/csharp-8\\\" target=\\\"_blank\\\">C# 8.0 </a></p>\\r\\n\\r\\n<p>Your code is compiled with debug flag enabled (<code>/debug</code>).</p>\"], \"javascript\": [\"JavaScript\", \"<p><code>Node.js 14.3.0</code>.</p>\\r\\n\\r\\n<p>Your code is run with <code>--harmony</code> flag, enabling <a href=\\\"http://node.green/\\\" target=\\\"_blank\\\">new ES6 features</a>.</p>\\r\\n\\r\\n<p><a href=\\\"https://lodash.com\\\" target=\\\"_blank\\\">lodash.js</a> library is included by default.</p>\\r\\n\\r\\n<p>For Priority Queue / Queue data structures, you may use <a href=\\\"https://github.com/datastructures-js/priority-queue\\\" target=\\\"_blank\\\">datastructures-js/priority-queue</a> and <a href=\\\"https://github.com/datastructures-js/queue\\\" target=\\\"_blank\\\">datastructures-js/queue</a>.</p>\"], \"ruby\": [\"Ruby\", \"<p><code>Ruby 2.7.1</code></p>\\r\\n\\r\\n<p>Some common data structure implementations are provided in the Algorithms module: https://www.rubydoc.info/github/kanwei/algorithms/Algorithms</p>\"], \"swift\": [\"Swift\", \"<p><code>Swift 5.2.5</code>.</p>\"], \"golang\": [\"Go\", \"<p><code>Go 1.13</code>.</p>\"], \"python3\": [\"Python3\", \"<p><code>Python 3.9</code>.</p>\\r\\n\\r\\n<p>Most libraries are already imported automatically for your convenience, such as <a href=\\\"https://docs.python.org/3/library/array.html\\\" target=\\\"_blank\\\">array</a>, <a href=\\\"https://docs.python.org/3/library/bisect.html\\\" target=\\\"_blank\\\">bisect</a>, <a href=\\\"https://docs.python.org/3/library/collections.html\\\" target=\\\"_blank\\\">collections</a>. If you need more libraries, you can import it yourself.</p>\\r\\n\\r\\n<p>For Map/TreeMap data structure, you may use <a href=\\\"http://www.grantjenks.com/docs/sortedcontainers/\\\" target=\\\"_blank\\\">sortedcontainers</a> library.</p>\"], \"scala\": [\"Scala\", \"<p><code>Scala 2.13</code>.</p>\"], \"kotlin\": [\"Kotlin\", \"<p><code>Kotlin 1.3.10</code>.</p>\"], \"rust\": [\"Rust\", \"<p><code>Rust 1.40.0</code></p>\\r\\n\\r\\n<p>Supports <a href=\\\"https://crates.io/crates/rand\\\" target=\\\"_blank\\\">rand</a>\\u00a0from crates.io</p>\"], \"php\": [\"PHP\", \"<p><code>PHP 7.2</code>.</p>\\r\\n<p>With bcmath module</p>\"], \"typescript\": [\"Typescript\", \"<p><code>Node.js 14.3.0</code>.</p>\\r\\n\\r\\n<p>Your code is run with <code>--harmony</code> flag, enabling <a href=\\\"http://node.green/\\\" target=\\\"_blank\\\">new ES6 features</a>.</p>\\r\\n\\r\\n<p><a href=\\\"https://lodash.com\\\" target=\\\"_blank\\\">lodash.js</a> library is included by default.</p>\"]}",
  "libraryUrl": null,
  "adminUrl": null,
  "__typename": "QuestionNode"
}